<?xml version="1.0" encoding="UTF-8"?>
<!DOCTYPE svg PUBLIC "-//W3C//DTD SVG 1.1//EN" "http://www.w3.org/Graphics/SVG/1.1/DTD/svg11.dtd">
<svg width="338mm" height="110mm" viewBox="0 0 33800 11000" version="1.1" xmlns="http://www.w3.org/2000/svg" xmlns:xlink="http://www.w3.org/1999/xlink" stroke-width="28.222" stroke-linejoin="round" xml:space="preserve">
 <path fill="rgb(255,255,255)" stroke="none" d="M 16879,11023 L 0,11023 0,0 33757,0 33757,11023 16879,11023 Z"/>
 <path fill="none" stroke="rgb(179,179,179)" stroke-linejoin="round" d="M 15377,10549 L 1223,10549 1223,365 29531,365 29531,10549 15377,10549 Z"/>
 <path fill="none" stroke="rgb(179,179,179)" stroke-linejoin="round" d="M 29530,10548 L 1222,10548"/>
 <path fill="none" stroke="rgb(179,179,179)" stroke-linejoin="round" d="M 29530,9529 L 1222,9529"/>
 <path fill="none" stroke="rgb(179,179,179)" stroke-linejoin="round" d="M 29530,8511 L 1222,8511"/>
 <path fill="none" stroke="rgb(179,179,179)" stroke-linejoin="round" d="M 29530,7492 L 1222,7492"/>
 <path fill="none" stroke="rgb(179,179,179)" stroke-linejoin="round" d="M 29530,6474 L 1222,6474"/>
 <path fill="none" stroke="rgb(179,179,179)" stroke-linejoin="round" d="M 29530,5456 L 1222,5456"/>
 <path fill="none" stroke="rgb(179,179,179)" stroke-linejoin="round" d="M 29530,4438 L 1222,4438"/>
 <path fill="none" stroke="rgb(179,179,179)" stroke-linejoin="round" d="M 29530,3419 L 1222,3419"/>
 <path fill="none" stroke="rgb(179,179,179)" stroke-linejoin="round" d="M 29530,2401 L 1222,2401"/>
 <path fill="none" stroke="rgb(179,179,179)" stroke-linejoin="round" d="M 29530,1382 L 1222,1382"/>
 <path fill="none" stroke="rgb(179,179,179)" stroke-linejoin="round" d="M 29530,364 L 1222,364"/>
 <path fill="none" stroke="rgb(179,179,179)" stroke-linejoin="round" d="M 1222,5605 L 1222,5456"/>
 <path fill="none" stroke="rgb(179,179,179)" stroke-linejoin="round" d="M 1222,5605 L 1222,5456"/>
 <path fill="none" stroke="rgb(179,179,179)" stroke-linejoin="round" d="M 5267,5605 L 5267,5456"/>
 <path fill="none" stroke="rgb(179,179,179)" stroke-linejoin="round" d="M 5267,5605 L 5267,5456"/>
 <path fill="none" stroke="rgb(179,179,179)" stroke-linejoin="round" d="M 9311,5605 L 9311,5456"/>
 <path fill="none" stroke="rgb(179,179,179)" stroke-linejoin="round" d="M 9311,5605 L 9311,5456"/>
 <path fill="none" stroke="rgb(179,179,179)" stroke-linejoin="round" d="M 13355,5605 L 13355,5456"/>
 <path fill="none" stroke="rgb(179,179,179)" stroke-linejoin="round" d="M 13355,5605 L 13355,5456"/>
 <path fill="none" stroke="rgb(179,179,179)" stroke-linejoin="round" d="M 17398,5605 L 17398,5456"/>
 <path fill="none" stroke="rgb(179,179,179)" stroke-linejoin="round" d="M 17398,5605 L 17398,5456"/>
 <path fill="none" stroke="rgb(179,179,179)" stroke-linejoin="round" d="M 21442,5605 L 21442,5456"/>
 <path fill="none" stroke="rgb(179,179,179)" stroke-linejoin="round" d="M 21442,5605 L 21442,5456"/>
 <path fill="none" stroke="rgb(179,179,179)" stroke-linejoin="round" d="M 25486,5605 L 25486,5456"/>
 <path fill="none" stroke="rgb(179,179,179)" stroke-linejoin="round" d="M 25486,5605 L 25486,5456"/>
 <path fill="none" stroke="rgb(179,179,179)" stroke-linejoin="round" d="M 29530,5605 L 29530,5456"/>
 <path fill="none" stroke="rgb(179,179,179)" stroke-linejoin="round" d="M 29530,5605 L 29530,5456"/>
 <path fill="none" stroke="rgb(179,179,179)" stroke-linejoin="round" d="M 1222,5456 L 29530,5456"/>
 <path fill="none" stroke="rgb(179,179,179)" stroke-linejoin="round" d="M 1072,10548 L 1222,10548"/>
 <path fill="none" stroke="rgb(179,179,179)" stroke-linejoin="round" d="M 1072,10548 L 1222,10548"/>
 <path fill="none" stroke="rgb(179,179,179)" stroke-linejoin="round" d="M 1072,9529 L 1222,9529"/>
 <path fill="none" stroke="rgb(179,179,179)" stroke-linejoin="round" d="M 1072,9529 L 1222,9529"/>
 <path fill="none" stroke="rgb(179,179,179)" stroke-linejoin="round" d="M 1072,8511 L 1222,8511"/>
 <path fill="none" stroke="rgb(179,179,179)" stroke-linejoin="round" d="M 1072,8511 L 1222,8511"/>
 <path fill="none" stroke="rgb(179,179,179)" stroke-linejoin="round" d="M 1072,7492 L 1222,7492"/>
 <path fill="none" stroke="rgb(179,179,179)" stroke-linejoin="round" d="M 1072,7492 L 1222,7492"/>
 <path fill="none" stroke="rgb(179,179,179)" stroke-linejoin="round" d="M 1072,6474 L 1222,6474"/>
 <path fill="none" stroke="rgb(179,179,179)" stroke-linejoin="round" d="M 1072,6474 L 1222,6474"/>
 <path fill="none" stroke="rgb(179,179,179)" stroke-linejoin="round" d="M 1072,5456 L 1222,5456"/>
 <path fill="none" stroke="rgb(179,179,179)" stroke-linejoin="round" d="M 1072,5456 L 1222,5456"/>
 <path fill="none" stroke="rgb(179,179,179)" stroke-linejoin="round" d="M 1072,4438 L 1222,4438"/>
 <path fill="none" stroke="rgb(179,179,179)" stroke-linejoin="round" d="M 1072,4438 L 1222,4438"/>
 <path fill="none" stroke="rgb(179,179,179)" stroke-linejoin="round" d="M 1072,3419 L 1222,3419"/>
 <path fill="none" stroke="rgb(179,179,179)" stroke-linejoin="round" d="M 1072,3419 L 1222,3419"/>
 <path fill="none" stroke="rgb(179,179,179)" stroke-linejoin="round" d="M 1072,2401 L 1222,2401"/>
 <path fill="none" stroke="rgb(179,179,179)" stroke-linejoin="round" d="M 1072,2401 L 1222,2401"/>
 <path fill="none" stroke="rgb(179,179,179)" stroke-linejoin="round" d="M 1072,1382 L 1222,1382"/>
 <path fill="none" stroke="rgb(179,179,179)" stroke-linejoin="round" d="M 1072,1382 L 1222,1382"/>
 <path fill="none" stroke="rgb(179,179,179)" stroke-linejoin="round" d="M 1072,364 L 1222,364"/>
 <path fill="none" stroke="rgb(179,179,179)" stroke-linejoin="round" d="M 1072,364 L 1222,364"/>
 <path fill="none" stroke="rgb(179,179,179)" stroke-linejoin="round" d="M 1222,10548 L 1222,364"/>
 <path fill="none" stroke="rgb(255,211,32)" stroke-width="80" stroke-linejoin="round" d="M 3273,5456 L 3288,5456 3302,5456 3317,5456 3332,5456 3346,5455 3356,5455 3370,5455 3385,5455 3399,5455 3414,5455 3429,5455 3438,5455 3453,5455 3467,5455 3482,5455 3497,5455 3511,5455 3526,5455 3535,5455 3550,5455 3564,5455 3579,5454 3594,5454 3608,5454 3618,5454 3632,5454 3647,5454 3662,5454 3676,5454 3691,5454 3700,5454 3715,5454 3729,5454 3744,5453 3759,5453 3773,5453 3783,5453 3797,5453 3812,5453 3827,5453 3841,5453 3856,5453 3865,5453 3880,5453 3894,5452 3909,5452 3924,5452 3938,5452 3948,5452 3962,5452 3977,5452 3992,5452 4006,5452 4021,5452 4030,5452 4045,5451 4059,5451 4074,5451 4089,5451 4103,5451 4113,5451 4127,5451 4142,5451 4157,5451 4171,5450 4186,5450 4195,5450 4210,5450 4224,5450 4239,5450 4254,5450 4268,5450 4278,5450 4292,5449 4307,5449 4322,5449 4336,5449 4351,5449 4360,5449 4375,5449 4389,5448 4404,5448 4419,5448 4433,5448 4448,5448 4457,5448 4472,5448 4487,5447 4501,5447 4516,5447 4530,5447 4540,5447 4554,5447 4569,5446 4584,5446 4598,5446 4613,5446 4622,5446 4637,5445 4652,5445 4666,5445 4681,5445 4695,5445 4705,5445 4719,5444 4734,5444 4749,5444 4763,5444 4778,5443 4787,5443 4802,5443 4817,5443 4831,5443 4846,5442 4860,5442 4870,5442 4884,5442 4899,5442 4914,5441 4928,5441 4943,5441 4952,5441 4967,5440 4982,5440 4996,5440 5011,5440 5025,5439 5035,5439 5049,5439 5064,5439 5079,5439 5093,5438 5108,5438 5117,5438 5132,5438 5147,5437 5161,5437 5176,5437 5190,5436 5200,5436 5214,5436 5229,5436 5244,5435 5258,5435 5273,5435 5282,5434 5297,5434 5312,5434 5326,5434 5341,5433 5355,5433 5370,5433 5379,5432 5394,5432 5409,5432 5423,5431 5438,5431 5452,5431 5462,5430 5477,5430 5491,5430 5501,5429 5506,5429 5520,5429 5535,5428 5544,5428 5559,5428 5574,5427 5588,5427 5603,5427 5617,5426 5627,5426 5642,5426 5656,5425 5671,5425 5685,5424 5700,5424 5709,5424 5724,5423 5739,5423 5753,5422 5768,5422 5782,5421 5792,5421 5807,5421 5821,5420 5836,5420 5850,5419 5865,5419 5874,5419 5889,5418 5904,5418 5918,5417 5933,5417 5947,5416 5957,5416 5972,5415 5986,5415 6001,5414 6015,5414 6030,5413 6039,5413 6054,5412 6069,5412 6083,5411 6098,5411 6112,5410 6122,5410 6137,5409 6151,5409 6166,5408 6180,5408 6195,5407 6204,5407 6219,5406 6234,5406 6248,5405 6263,5405 6277,5404 6292,5404 6302,5403 6311,5403 6316,5403 6331,5402 6345,5401 6360,5401 6374,5400 6384,5400 6399,5399 6413,5399 6428,5398 6442,5397 6457,5397 6467,5396 6481,5396 6496,5395 6510,5395 6525,5394 6539,5393 6549,5393 6564,5392 6578,5392 6593,5391 6607,5390 6622,5390 6627,5390 6632,5389 6646,5389 6661,5388 6675,5387 6690,5387 6704,5386 6714,5386 6729,5385 6743,5384 6758,5384 6772,5383 6787,5382 6797,5382 6811,5381 6826,5380 6840,5380 6855,5379 6869,5378 6879,5378 6894,5377 6908,5377 6913,5376 6923,5376 6937,5375 6952,5374 6962,5374 6976,5373 6991,5372 7005,5372 7020,5371 7034,5370 7044,5370 7059,5369 7073,5368 7088,5368 7102,5367 7117,5366 7127,5366 7141,5365 7156,5364 7170,5363 7180,5363 7185,5363 7199,5362 7214,5361 7224,5361 7238,5360 7253,5359 7267,5358 7282,5358 7296,5357 7306,5356 7321,5356 7335,5355 7350,5354 7364,5353 7379,5353 7389,5352 7403,5351 7418,5351 7432,5350 7447,5349 7461,5348 7471,5348 7486,5347 7500,5346 7515,5345 7529,5345 7544,5344 7554,5343 7568,5343 7583,5342 7597,5341 7612,5340 7626,5339 7636,5339 7651,5338 7665,5337 7680,5337 7694,5336 7709,5335 7719,5334 7733,5334 7748,5333 7762,5332 7777,5331 7791,5331 7801,5330 7816,5329 7830,5329 7845,5328 7859,5327 7874,5326 7884,5326 7898,5325 7913,5324 7927,5323 7932,5323 7942,5323 7956,5322 7966,5321 7981,5321 7995,5320 8010,5319 8024,5318 8039,5318 8049,5317 8063,5316 8078,5316 8092,5315 8107,5314 8121,5313 8136,5313 8146,5312 8160,5311 8175,5311 8189,5310 8204,5309 8218,5309 8228,5308 8243,5307 8257,5307 8272,5306 8286,5305 8301,5305 8311,5304 8325,5303 8340,5303 8354,5302 8369,5301 8383,5300 8393,5300 8408,5299 8422,5298 8437,5298 8451,5297 8456,5297 8466,5296 8476,5296 8490,5295 8505,5294 8519,5293 8534,5292 8548,5292 8558,5291 8573,5291 8587,5290 8602,5289 8616,5288 8631,5288 8641,5287 8655,5286 8670,5285 8684,5285 8699,5284 8704,5284 8713,5283 8723,5283 8738,5282 8752,5281 8767,5280 8781,5279 8796,5279 8806,5278 8820,5277 8835,5276 8849,5275 8864,5274 8878,5273 8888,5273 8903,5272 8917,5271 8927,5270 8932,5270 8946,5269 8961,5268 8971,5267 8985,5266 9000,5266 9014,5265 9029,5264 9043,5263 9058,5262 9068,5262 9082,5261 9097,5260 9111,5260 9126,5259 9141,5258 9150,5258 9165,5257 9179,5256 9194,5256 9208,5255 9223,5254 9233,5254 9247,5253 9262,5252 9276,5251 9291,5250 9306,5249 9315,5249 9330,5248 9344,5247 9359,5246 9373,5245 9388,5244 9398,5243 9412,5242 9427,5241 9441,5239 9456,5238 9471,5237 9480,5236 9495,5235 9509,5234 9524,5233 9538,5232 9553,5230 9563,5230 9577,5228 9592,5227 9606,5226 9621,5225 9636,5224 9645,5223 9660,5222 9674,5221 9689,5220 9703,5219 9718,5218 9728,5217 9742,5216 9757,5215 9771,5214 9786,5213 9801,5212 9810,5211 9825,5210 9839,5209 9854,5208 9868,5207 9883,5206 9893,5205 9907,5204 9922,5203 9936,5202 9951,5200 9966,5199 9980,5198 9990,5197 10004,5196 10019,5194 10033,5193 10048,5192 10063,5191 10067,5191 10072,5190 10087,5189 10101,5188 10116,5187 10131,5186 10145,5184 10155,5184 10169,5182 10184,5181 10198,5180 10213,5179 10228,5178 10232,5177 10237,5177 10252,5176 10266,5175 10281,5174 10296,5172 10310,5171 10320,5170 10334,5169 10349,5168 10363,5166 10378,5165 10388,5164 10393,5164 10402,5163 10417,5161 10431,5160 10446,5158 10461,5157 10475,5156 10485,5155 10499,5153 10514,5152 10528,5151 10543,5149 10558,5148 10567,5147 10582,5146 10596,5145 10611,5144 10626,5143 10640,5142 10650,5141 10664,5141 10679,5140 10693,5139 10708,5138 10723,5138 10732,5137 10747,5137 10761,5136 10776,5135 10791,5135 10805,5134 10815,5133 10829,5132 10844,5132 10858,5131 10873,5130 10888,5129 10902,5127 10912,5127 10926,5126 10941,5125 10946,5124 10956,5124 10970,5123 10985,5122 10994,5121 11009,5121 11023,5120 11038,5119 11053,5119 11067,5118 11077,5117 11091,5117 11106,5116 11121,5116 11135,5115 11150,5114 11159,5114 11174,5113 11188,5113 11203,5112 11213,5111 11218,5111 11232,5110 11242,5109 11256,5108 11271,5107 11286,5106 11300,5104 11315,5103 11324,5102 11339,5101 11353,5099 11368,5098 11383,5096 11397,5095 11407,5094 11421,5093 11436,5092 11451,5091 11465,5090 11480,5089 11489,5089 11504,5088 11518,5088 11533,5087 11548,5087 11562,5086 11572,5086 11586,5085 11601,5085 11611,5085 11616,5084 11630,5084 11645,5083 11654,5083 11669,5082 11683,5081 11698,5080 11713,5079 11727,5078 11737,5077 11751,5076 11766,5075 11781,5075 11795,5074 11810,5073 11824,5073 11834,5072 11849,5072 11858,5071 11863,5071 11878,5071 11892,5070 11907,5070 11916,5069 11931,5069 11946,5068 11960,5068 11975,5067 11989,5066 11999,5066 12014,5065 12028,5064 12043,5063 12057,5062 12072,5061 12081,5060 12096,5059 12106,5058 12111,5057 12125,5056 12140,5055 12154,5053 12164,5052 12179,5051 12193,5050 12208,5049 12222,5048 12237,5047 12246,5046 12261,5045 12271,5045 12276,5045 12290,5044 12305,5043 12319,5043 12329,5042 12344,5042 12358,5042 12373,5041 12387,5041 12402,5040 12411,5040 12426,5039 12441,5039 12455,5038 12470,5038 12484,5037 12494,5036 12509,5035 12523,5034 12538,5033 12552,5032 12557,5031 12567,5031 12576,5030 12591,5029 12606,5028 12620,5028 12635,5027 12649,5026 12664,5026 12674,5025 12688,5025 12703,5024 12717,5024 12732,5023 12746,5023 12756,5022 12771,5022 12785,5021 12800,5020 12814,5020 12829,5019 12839,5018 12853,5017 12868,5016 12882,5015 12897,5015 12911,5014 12921,5013 12936,5013 12950,5012 12965,5011 12979,5011 12994,5011 13004,5010 13018,5010 13033,5010 13047,5009 13062,5009 13076,5009 13086,5009 13101,5009 13115,5009 13130,5009 13144,5009 13159,5008 13169,5008 13183,5008 13198,5008 13212,5008 13227,5008 13241,5009 13251,5009 13266,5010 13280,5011 13295,5011 13309,5012 13324,5013 13334,5014 13348,5016 13363,5017 13377,5018 13387,5018 13392,5019 13406,5020 13416,5021 13431,5022 13445,5022 13460,5023 13474,5023 13489,5023 13499,5023 13513,5023 13528,5023 13542,5022 13557,5022 13571,5021 13586,5020 13596,5020 13610,5020 13625,5019 13639,5019 13654,5019 13668,5020 13678,5020 13693,5021 13707,5021 13722,5022 13736,5023 13751,5023 13761,5024 13775,5025 13790,5027 13804,5028 13819,5029 13833,5029 13843,5029 13858,5030 13872,5031 13887,5032 13901,5033 13916,5034 13926,5034 13940,5034 13955,5034 13969,5034 13984,5034 13998,5035 14008,5035 14023,5035 14037,5035 14052,5036 14066,5037 14081,5038 14091,5039 14105,5040 14120,5040 14134,5040 14149,5041 14163,5041 14173,5041 14188,5042 14202,5042 14217,5043 14231,5044 14246,5045 14251,5045 14256,5045 14270,5045 14285,5045 14299,5045 14314,5044 14328,5043 14338,5043 14353,5042 14367,5042 14382,5041 14396,5042 14411,5042 14421,5043 14435,5044 14450,5045 14455,5045 14464,5046 14479,5046 14493,5047 14508,5047 14518,5048 14532,5048 14547,5049 14561,5050 14576,5051 14590,5052 14600,5053 14615,5053 14629,5054 14644,5054 14658,5054 14673,5054 14683,5054 14697,5054 14712,5054 14726,5054 14741,5055 14755,5055 14765,5055 14780,5055 14794,5055 14809,5055 14823,5055 14838,5055 14848,5055 14862,5055 14877,5055 14891,5054 14906,5053 14920,5052 14930,5051 14945,5050 14959,5049 14974,5047 14988,5046 15003,5045 15013,5044 15027,5043 15042,5042 15056,5041 15071,5041 15085,5041 15095,5040 15110,5040 15124,5041 15139,5041 15153,5041 15168,5042 15178,5042 15192,5042 15207,5043 15221,5043 15236,5044 15250,5045 15260,5046 15275,5047 15289,5047 15304,5048 15318,5049 15333,5050 15343,5050 15357,5051 15372,5053 15386,5053 15401,5054 15415,5054 15430,5054 15440,5054 15454,5053 15469,5053 15483,5052 15498,5051 15512,5050 15522,5049 15537,5048 15551,5047 15566,5046 15580,5046 15595,5045 15600,5045 15605,5045 15619,5044 15634,5044 15648,5044 15663,5044 15677,5045 15682,5045 15687,5045 15702,5045 15716,5046 15731,5047 15745,5047 15760,5047 15770,5047 15784,5046 15799,5046 15813,5046 15828,5046 15842,5046 15852,5045 15867,5045 15881,5045 15891,5045 15896,5044 15910,5044 15925,5042 15935,5042 15949,5041 15964,5040 15978,5039 15993,5038 16007,5037 16017,5037 16032,5035 16046,5034 16061,5033 16075,5032 16080,5031 16090,5030 16100,5029 16114,5028 16129,5027 16143,5025 16158,5024 16172,5023 16182,5022 16197,5021 16211,5019 16226,5018 16240,5017 16255,5016 16265,5016 16279,5015 16294,5015 16308,5015 16323,5015 16338,5016 16352,5017 16362,5017 16376,5018 16391,5018 16396,5019 16405,5020 16420,5021 16435,5022 16444,5023 16459,5025 16473,5026 16488,5028 16503,5029 16517,5031 16527,5031 16536,5032 16541,5032 16556,5033 16570,5033 16585,5033 16600,5033 16609,5033 16624,5032 16629,5031 16638,5030 16653,5029 16668,5027 16682,5025 16692,5024 16706,5022 16721,5020 16735,5018 16750,5016 16765,5015 16774,5015 16789,5015 16803,5015 16818,5015 16833,5015 16847,5015 16857,5015 16871,5016 16885,5018 16895,5018 16899,5019 16914,5020 16929,5021 16938,5021 16953,5022 16967,5023 16982,5023 16997,5024 17011,5024 17021,5024 17035,5024 17050,5024 17064,5025 17079,5026 17094,5026 17103,5027 17118,5028 17132,5028 17147,5029 17162,5029 17176,5029 17186,5029 17200,5029 17215,5030 17229,5030 17244,5030 17259,5031 17273,5032 17278,5032 17283,5032 17297,5033 17312,5034 17327,5035 17341,5037 17356,5038 17365,5038 17380,5039 17394,5039 17409,5038 17424,5038 17438,5038 17448,5038 17462,5038 17477,5038 17492,5038 17506,5038 17521,5037 17530,5037 17545,5036 17559,5036 17574,5035 17589,5034 17603,5033 17613,5033 17627,5031 17642,5030 17657,5028 17671,5026 17686,5024 17695,5022 17710,5019 17715,5018 17724,5016 17739,5013 17754,5009 17768,5006 17773,5005 17778,5003 17792,5000 17807,4997 17822,4995 17836,4992 17841,4991 17851,4990 17860,4988 17875,4987 17889,4985 17904,4983 17919,4982 17933,4980 17943,4979 17948,4978 17957,4977 17972,4976 17987,4975 18001,4974 18016,4973 18025,4972 18040,4971 18054,4970 18069,4970 18084,4970 18098,4972 18108,4973 18122,4975 18137,4977 18152,4979 18166,4981 18181,4982 18195,4984 18205,4985 18219,4987 18234,4989 18249,4990 18263,4991 18273,4992 18278,4993 18287,4993 18302,4994 18317,4994 18331,4994 18346,4993 18360,4992 18365,4991 18370,4991 18384,4989 18399,4987 18414,4986 18428,4985 18443,4984 18452,4984 18467,4984 18482,4984 18496,4985 18511,4986 18525,4987 18535,4988 18549,4989 18564,4990 18579,4991 18588,4993 18593,4993 18608,4997 18617,5000 18632,5005 18637,5006 18647,5008 18661,5011 18676,5016 18685,5019 18690,5021 18700,5024 18714,5029 18724,5033 18729,5034 18744,5039 18758,5043 18773,5045 18782,5047 18797,5049 18812,5051 18826,5054 18841,5056 18855,5056 18865,5055 18879,5053 18894,5051 18909,5049 18923,5049 18938,5051 18947,5053 18962,5056 18972,5058 18977,5059 18991,5063 19006,5066 19020,5071 19025,5073 19030,5074 19044,5079 19059,5084 19064,5086 19074,5089 19088,5093 19103,5097 19108,5098 19117,5101 19127,5103 19142,5107 19156,5110 19166,5112 19171,5113 19185,5115 19200,5118 19209,5120 19224,5124 19229,5125 19239,5128 19253,5131 19268,5134 19282,5138 19287,5139 19292,5140 19307,5144 19321,5148 19336,5152 19350,5155 19365,5157 19374,5159 19389,5160 19404,5160 19418,5159 19433,5157 19447,5155 19457,5154 19472,5154 19486,5154 19501,5156 19515,5158 19530,5161 19539,5163 19549,5165 19554,5166 19569,5169 19583,5173 19598,5178 19612,5182 19622,5183 19637,5187 19651,5191 19666,5196 19680,5201 19695,5206 19704,5209 19719,5214 19734,5218 19748,5220 19763,5222 19777,5225 19787,5227 19802,5232 19816,5237 19831,5240 19845,5242 19860,5244 19865,5244 19869,5244 19884,5246 19899,5247 19913,5247 19928,5248 19942,5248 19952,5248 19967,5248 19981,5248 19996,5249 20010,5249 20025,5249 20039,5249 20049,5249 20064,5249 20078,5249 20093,5249 20107,5250 20122,5250 20132,5250 20146,5250 20161,5250 20175,5250 20190,5250 20204,5250 20214,5250 20229,5250 20243,5251 20258,5251 20272,5252 20287,5254 20297,5255 20311,5257 20316,5257 20326,5258 20340,5259 20355,5260 20369,5261 20379,5261 20394,5263 20408,5265 20423,5266 20437,5268 20452,5269 20462,5270 20466,5271 20476,5272 20491,5274 20505,5275 20520,5276 20534,5277 20544,5278 20559,5278 20573,5278 20588,5278 20602,5277 20617,5276 20627,5276 20641,5274 20656,5273 20670,5271 20675,5270 20685,5269 20699,5267 20709,5265 20724,5264 20738,5262 20753,5261 20767,5260 20782,5259 20792,5258 20806,5258 20821,5257 20826,5257 20835,5257 20850,5256 20864,5256 20874,5256 20889,5257 20903,5257 20918,5257 20932,5257 20947,5257 20961,5257 20971,5257 20976,5257 20986,5256 21000,5255 21015,5254 21029,5253 21044,5251 21054,5250 21068,5249 21083,5247 21097,5245 21107,5243 21112,5242 21126,5240 21136,5238 21151,5235 21165,5232 21175,5230 21180,5229 21194,5226 21209,5223 21219,5221 21233,5218 21243,5216 21248,5216 21262,5213 21277,5211 21291,5209 21301,5207 21316,5206 21330,5204 21345,5203 21359,5202 21374,5201 21384,5200 21398,5200 21413,5199 21427,5199 21442,5198 21456,5197 21466,5197 21481,5196 21495,5195 21510,5193 21524,5192 21534,5190 21539,5190 21549,5189 21563,5188 21578,5186 21592,5185 21607,5184 21621,5182 21631,5181 21646,5180 21660,5178 21665,5177 21675,5176 21689,5174 21704,5172 21714,5171 21728,5169 21743,5168 21757,5167 21772,5166 21786,5165 21796,5164 21801,5164 21811,5163 21825,5161 21840,5160 21854,5158 21869,5157 21883,5156 21893,5155 21908,5155 21922,5154 21937,5153 21951,5152 21966,5152 21976,5151 21990,5151 22005,5151 22019,5151 22034,5151 22048,5151 22058,5152 22073,5151 22087,5151 22102,5150 22116,5149 22131,5148 22141,5147 22155,5146 22170,5146 22184,5145 22199,5143 22213,5142 22223,5140 22238,5138 22243,5137 22252,5135 22267,5132 22281,5129 22296,5126 22301,5124 22306,5123 22320,5120 22335,5116 22349,5113 22359,5111 22364,5110 22378,5107 22388,5106 22403,5103 22417,5100 22432,5098 22446,5095 22461,5092 22471,5090 22485,5087 22495,5085 22500,5083 22514,5080 22529,5075 22543,5071 22553,5068 22568,5063 22582,5058 22597,5053 22611,5048 22626,5044 22636,5041 22650,5038 22665,5034 22679,5031 22694,5028 22708,5025 22723,5022 22733,5020 22742,5017 22747,5016 22762,5013 22776,5010 22791,5007 22806,5004 22815,5003 22830,5001 22844,5000 22859,4998 22873,4997 22888,4997 22898,4996 22912,4995 22927,4995 22941,4994 22956,4994 22971,4995 22980,4995 22995,4996 23009,4997 23024,4998 23038,4999 23053,4999 23063,4999 23077,4999 23092,5000 23106,5001 23121,5001 23136,5000 23145,4999 23160,4998 23174,4995 23189,4993 23194,4991 23203,4989 23218,4985 23228,4982 23242,4978 23257,4975 23271,4972 23286,4970 23301,4968 23310,4967 23325,4966 23334,4965 23339,4965 23354,4963 23368,4961 23383,4958 23393,4956 23407,4953 23412,4952 23422,4949 23436,4944 23451,4940 23456,4938 23466,4935 23475,4931 23490,4925 23504,4920 23519,4915 23529,4912 23533,4910 23548,4907 23558,4904 23572,4901 23587,4899 23601,4896 23616,4894 23631,4892 23645,4890 23655,4889 23669,4886 23674,4886 23684,4884 23698,4881 23713,4878 23728,4874 23737,4872 23752,4869 23766,4865 23781,4862 23791,4859 23796,4857 23810,4853 23820,4850 23834,4845 23849,4840 23863,4835 23873,4832 23878,4830 23893,4825 23902,4821 23907,4819 23917,4815 23931,4809 23941,4805 23946,4803 23961,4797 23975,4791 23985,4787 23999,4781 24004,4780 24014,4776 24028,4771 24043,4766 24058,4761 24067,4758 24082,4754 24087,4752 24096,4749 24111,4745 24126,4741 24130,4740 24140,4737 24150,4734 24164,4731 24179,4728 24189,4726 24193,4725 24208,4722 24223,4719 24232,4718 24247,4714 24252,4713 24261,4711 24276,4707 24291,4702 24300,4699 24305,4697 24315,4694 24329,4689 24339,4686 24344,4684 24358,4680 24373,4675 24383,4672 24388,4671 24397,4668 24412,4663 24422,4660 24426,4658 24441,4653 24456,4647 24460,4645 24470,4641 24480,4637 24489,4633 24494,4631 24509,4625 24523,4620 24538,4616 24553,4612 24567,4609 24577,4607 24591,4604 24606,4603 24621,4602 24635,4602 24650,4604 24659,4606 24669,4608 24674,4610 24688,4615 24703,4623 24718,4631 24727,4635 24732,4637 24742,4640 24756,4643 24771,4646 24786,4647 24800,4644 24815,4639 24824,4635 24829,4633 24839,4629 24853,4622 24858,4620 24868,4616 24883,4610 24892,4607 24897,4605 24907,4602 24921,4597 24936,4593 24951,4588 24965,4584 24980,4580 24989,4577 25004,4574 25018,4573 25033,4574 25048,4576 25062,4581 25072,4585 25086,4592 25096,4596 25101,4598 25116,4602 25130,4604 25145,4607 25154,4611 25169,4620 25174,4623 25183,4628 25198,4636 25213,4642 25227,4648 25237,4653 25251,4660 25256,4661 25266,4662 25281,4662 25290,4659 25295,4658 25310,4652 25319,4647 25324,4645 25334,4642 25348,4639 25363,4638 25378,4637 25392,4636 25402,4635 25412,4633 25416,4632 25431,4628 25446,4622 25450,4620 25460,4615 25475,4608 25480,4606 25489,4603 25499,4600 25513,4597 25528,4595 25543,4594 25557,4593 25572,4591 25581,4590 25596,4590 25611,4590 25625,4592 25635,4595 25640,4597 25654,4606 25659,4609 25664,4613 25674,4621 25678,4624 25693,4631 25703,4635 25708,4637 25722,4641 25737,4641 25746,4641 25761,4641 25776,4642 25790,4645 25805,4648 25819,4655 25829,4661 25843,4670 25853,4677 25858,4680 25873,4689 25887,4694 25902,4696 25911,4697 25926,4697 25941,4694 25955,4689 25965,4685 25970,4683 25984,4676 25989,4673 25994,4670 26008,4663 26018,4658 26023,4656 26038,4650 26047,4647 26052,4645 26067,4639 26076,4635 26081,4633 26091,4629 26106,4622 26110,4620 26120,4615 26135,4607 26149,4599 26159,4594 26173,4587 26188,4582 26193,4580 26203,4577 26217,4573 26232,4569 26241,4567 26256,4563 26271,4558 26285,4553 26300,4548 26314,4543 26324,4539 26338,4534 26353,4706 26358,5121 26363,5373"/>
 <path fill="none" stroke="rgb(255,66,14)" stroke-width="80" stroke-linejoin="round" d="M 3273,5453 L 3288,5453 3302,5454 3317,5454 3332,5454 3346,5454 3356,5455 3370,5455 3385,5455 3399,5455 3414,5455 3429,5454 3438,5454 3453,5454 3467,5455 3482,5455 3497,5454 3511,5454 3526,5455 3535,5455 3550,5454 3564,5455 3579,5455 3594,5455 3608,5454 3618,5456 3632,5456 3647,5454 3662,5455 3676,5454 3691,5455 3700,5454 3715,5455 3729,5456 3744,5456 3759,5455 3773,5456 3783,5456 3788,5455 3797,5455 3807,5456 3812,5455 3827,5454 3841,5456 3851,5455 3856,5456 3865,5455 3870,5456 3880,5455 3885,5456 3890,5455 3894,5456 3899,5456 3909,5457 3914,5456 3924,5454 3938,5455 3948,5457 3953,5455 3962,5455 3977,5454 3992,5455 3996,5456 4001,5456 4006,5455 4021,5455 4030,5455 4035,5456 4040,5455 4045,5455 4059,5454 4074,5453 4089,5456 4103,5454 4113,5454 4127,5455 4142,5455 4157,5455 4171,5454 4186,5454 4195,5453 4210,5453 4224,5454 4239,5454 4254,5454 4268,5453 4278,5453 4292,5454 4307,5454 4322,5453 4336,5452 4351,5453 4360,5453 4375,5453 4389,5452 4404,5452 4419,5453 4433,5454 4448,5451 4457,5453 4472,5452 4487,5453 4501,5453 4516,5451 4530,5453 4540,5452 4554,5453 4569,5452 4584,5451 4598,5451 4613,5453 4622,5451 4637,5450 4652,5451 4666,5451 4681,5451 4695,5450 4705,5451 4719,5451 4734,5451 4749,5451 4763,5451 4778,5452 4787,5451 4802,5452 4817,5452 4831,5452 4846,5452 4860,5451 4870,5451 4884,5450 4899,5450 4914,5451 4928,5451 4943,5450 4952,5449 4967,5451 4982,5451 4996,5451 5011,5451 5025,5451 5035,5453 5049,5453 5064,5451 5079,5451 5093,5452 5108,5452 5117,5452 5132,5451 5147,5450 5161,5451 5176,5451 5190,5450 5200,5450 5214,5451 5229,5451 5244,5451 5258,5451 5273,5451 5282,5451 5297,5451 5312,5452 5326,5453 5341,5453 5355,5452 5370,5452 5379,5450 5394,5450 5409,5450 5423,5450 5438,5450 5452,5451 5462,5452 5477,5452 5491,5451 5506,5453 5520,5453 5535,5453 5544,5452 5559,5453 5574,5451 5588,5450 5603,5450 5617,5451 5627,5451 5642,5451 5656,5453 5671,5453 5685,5453 5700,5452 5709,5452 5724,5452 5739,5452 5753,5452 5768,5452 5782,5450 5792,5451 5807,5451 5821,5451 5836,5451 5850,5452 5865,5453 5874,5454 5889,5454 5904,5452 5918,5452 5933,5452 5947,5453 5957,5452 5972,5453 5986,5453 6001,5453 6015,5452 6030,5452 6039,5453 6054,5453 6069,5455 6083,5454 6098,5453 6112,5454 6122,5452 6137,5453 6151,5453 6166,5455 6180,5455 6195,5453 6204,5454 6219,5453 6234,5453 6248,5453 6263,5453 6277,5454 6292,5454 6302,5455 6316,5454 6331,5453 6345,5453 6360,5453 6374,5453 6384,5452 6399,5453 6413,5453 6428,5454 6442,5453 6457,5453 6467,5454 6481,5452 6496,5453 6510,5453 6525,5453 6539,5454 6549,5454 6564,5455 6578,5454 6593,5454 6607,5453 6622,5452 6632,5452 6646,5451 6661,5452 6675,5452 6690,5452 6704,5453 6714,5452 6729,5453 6743,5454 6758,5454 6772,5454 6787,5453 6797,5454 6811,5453 6826,5452 6840,5451 6855,5451 6869,5451 6879,5452 6894,5453 6908,5454 6923,5455 6937,5454 6952,5454 6962,5454 6976,5454 6991,5453 7005,5453 7020,5454 7034,5454 7044,5454 7059,5454 7073,5455 7088,5455 7097,5456 7102,5455 7112,5456 7117,5455 7127,5455 7141,5454 7156,5452 7170,5452 7185,5453 7199,5453 7214,5453 7224,5453 7233,5456 7238,5456 7248,5456 7253,5457 7267,5456 7277,5456 7282,5455 7296,5453 7306,5453 7321,5452 7335,5451 7350,5450 7364,5452 7379,5455 7389,5456 7403,5458 7418,5458 7432,5458 7437,5456 7442,5456 7447,5456 7452,5455 7461,5453 7471,5450 7486,5450 7500,5450 7515,5452 7529,5456 7534,5457 7544,5460 7554,5461 7568,5462 7583,5460 7597,5455 7612,5450 7626,5446 7636,5446 7651,5446 7665,5451 7680,5458 7694,5465 7709,5469 7714,5470 7719,5470 7723,5469 7733,5465 7748,5455 7762,5444 7767,5441 7777,5437 7791,5436 7801,5440 7806,5444 7816,5453 7821,5459 7830,5469 7835,5474 7845,5481 7850,5484 7859,5485 7869,5481 7874,5478 7884,5467 7893,5451 7898,5442 7908,5427 7913,5422 7922,5413 7927,5412 7942,5422 7952,5439 7956,5449 7961,5461 7966,5473 7971,5485 7981,5506 7986,5515 7995,5523 8010,5519 8020,5501 8024,5489 8029,5473 8034,5455 8039,5438 8044,5419 8049,5400 8053,5384 8058,5371 8063,5362 8078,5369 8083,5386 8087,5409 8092,5436 8097,5463 8102,5491 8107,5518 8112,5544 8117,5570 8121,5594 8126,5615 8131,5631 8136,5640 8146,5633 8151,5617 8155,5590 8160,5554 8165,5512 8170,5464 8175,5419 8180,5371 8185,5323 8189,5276 8194,5237 8199,5204 8204,5185 8214,5216 8218,5268 8223,5343 8228,5437 8233,5542 8238,5645 8243,5729 8248,5814 8252,5913 8257,6003 8262,6080 8267,6133 8272,6167 8277,6171 8282,6138 8286,6061 8291,5932 8296,5746 8301,5492 8306,5193 8311,4839 8316,4550 8320,4264 8325,4010 8330,3757 8335,3479 8340,3255 8345,3076 8350,2944 8354,2853 8359,2806 8369,2850 8374,2944 8379,3095 8383,3301 8388,3556 8393,3835 8398,4088 8403,4360 8408,4641 8413,4948 8417,5282 8422,5611 8427,5954 8432,6274 8437,6565 8442,6862 8447,7129 8451,7388 8456,7687 8461,7873 8466,8011 8471,8093 8476,8124 8481,8106 8485,8036 8490,7912 8495,7730 8500,7481 8505,7153 8510,6727 8515,6240 8519,5753 8524,5256 8529,4764 8534,4251 8539,3734 8544,3295 8548,2892 8553,2527 8558,2195 8563,1895 8568,1628 8573,1392 8578,1225 8582,1133 8587,1114 8592,1183 8597,1310 8602,1455 8607,1615 8612,1791 8616,1979 8621,2177 8626,2385 8631,2604 8636,2831 8641,3045 8646,3252 8650,3465 8655,3671 8660,3849 8665,4002 8670,4142 8675,4271 8680,4389 8684,4496 8689,4594 8694,4682 8699,4765 8704,4844 8709,4919 8713,4989 8718,5063 8723,5155 8728,5254 8733,5354 8738,5454 8743,5552 8747,5647 8752,5739 8757,5827 8762,5910 8767,5986 8772,6052 8777,6098 8781,6146 8786,6191 8791,6232 8796,6266 8801,6294 8806,6315 8811,6335 8815,6344 8820,6341 8825,6328 8830,6307 8835,6277 8840,6241 8845,6202 8849,6162 8854,6128 8859,6098 8864,6059 8869,6016 8874,5973 8878,5928 8883,5878 8888,5810 8893,5738 8898,5676 8903,5613 8908,5551 8912,5489 8917,5426 8922,5364 8927,5302 8932,5241 8937,5181 8942,5120 8946,5059 8951,4999 8956,4937 8961,4876 8966,4827 8971,4786 8976,4744 8980,4699 8985,4661 8990,4628 8995,4601 9000,4580 9005,4563 9010,4549 9014,4540 9029,4543 9039,4567 9043,4584 9048,4602 9053,4625 9058,4651 9063,4681 9068,4710 9073,4740 9077,4771 9082,4802 9087,4832 9092,4860 9097,4885 9102,4908 9107,4928 9111,4946 9116,4961 9121,4973 9126,4983 9136,4995 9141,4998 9150,4996 9160,4986 9165,4977 9175,4956 9179,4944 9184,4931 9189,4917 9194,4902 9199,4887 9204,4871 9208,4854 9213,4839 9218,4824 9223,4811 9228,4797 9233,4781 9238,4770 9242,4758 9247,4749 9252,4740 9262,4736 9272,4718 9276,4706 9281,4691 9286,4673 9291,4658 9301,4642 9306,4638 9315,4636 9325,4648 9330,4660 9335,4676 9340,4692 9344,4711 9349,4742 9354,4781 9359,4826 9364,4877 9369,4933 9373,4987 9378,5039 9383,5092 9388,5144 9393,5195 9398,5245 9403,5293 9407,5339 9412,5382 9417,5423 9422,5462 9427,5502 9432,5540 9437,5577 9441,5611 9446,5645 9451,5678 9456,5708 9461,5738 9466,5768 9471,5798 9475,5825 9480,5855 9485,5879 9490,5912 9495,5946 9500,5976 9505,6006 9509,6032 9514,6054 9519,6073 9524,6092 9529,6107 9534,6121 9538,6133 9548,6145 9553,6146 9563,6143 9572,6123 9577,6105 9582,6087 9587,6066 9592,6045 9597,6023 9602,6004 9606,5990 9611,5981 9621,5967 9636,5973 9645,5983 9650,5993 9655,6007 9660,6028 9665,6048 9670,6075 9674,6107 9679,6142 9684,6176 9689,6203 9694,6228 9699,6249 9703,6264 9713,6278 9718,6275 9728,6252 9733,6229 9737,6198 9742,6161 9747,6120 9752,6072 9757,6017 9762,5960 9767,5902 9771,5847 9776,5797 9781,5752 9786,5712 9791,5679 9796,5656 9801,5641 9805,5636 9810,5640 9815,5653 9820,5673 9825,5699 9830,5732 9835,5771 9839,5815 9844,5861 9849,5911 9854,5963 9859,6014 9864,6064 9868,6116 9873,6162 9878,6206 9883,6247 9888,6282 9893,6311 9898,6335 9902,6352 9907,6361 9917,6355 9922,6340 9927,6318 9932,6288 9936,6252 9941,6209 9946,6164 9951,6115 9956,6064 9961,6007 9966,5935 9970,5870 9975,5800 9980,5728 9985,5655 9990,5581 9995,5506 10000,5430 10004,5353 10009,5278 10014,5210 10019,5142 10024,5073 10029,5005 10033,4937 10038,4872 10043,4814 10048,4766 10053,4713 10058,4664 10063,4624 10067,4587 10072,4557 10077,4532 10082,4515 10087,4502 10092,4492 10097,4486 10101,4488 10106,4496 10111,4510 10116,4530 10121,4556 10126,4587 10131,4624 10135,4667 10140,4714 10145,4759 10150,4806 10155,4852 10160,4895 10165,4936 10169,4975 10174,5010 10179,5039 10184,5062 10189,5081 10194,5092 10198,5096 10213,5070 10218,5049 10223,5023 10228,4994 10232,4963 10237,4931 10242,4898 10247,4864 10252,4832 10257,4801 10262,4772 10266,4746 10271,4723 10276,4706 10281,4692 10286,4683 10296,4683 10300,4691 10305,4704 10310,4723 10315,4745 10320,4772 10325,4802 10330,4834 10334,4868 10339,4902 10344,4935 10349,4967 10354,4995 10359,5020 10363,5040 10368,5056 10373,5068 10378,5075 10393,5067 10402,5046 10407,5032 10412,5016 10417,4998 10422,4980 10427,4962 10431,4943 10436,4924 10441,4907 10446,4890 10451,4873 10456,4856 10461,4840 10465,4825 10470,4809 10475,4793 10480,4774 10485,4753 10490,4731 10495,4708 10499,4684 10504,4660 10509,4638 10514,4616 10519,4594 10524,4571 10528,4549 10533,4526 10538,4502 10543,4478 10548,4452 10553,4425 10558,4397 10562,4368 10567,4338 10572,4304 10577,4267 10582,4226 10587,4180 10592,4128 10596,4071 10601,4003 10606,3901 10611,3787 10616,3657 10621,3494 10626,3352 10630,3246 10635,3140 10640,3034 10645,2928 10650,2824 10655,2722 10660,2621 10664,2522 10669,2426 10674,2331 10679,2242 10684,2173 10689,2135 10693,2118 10698,2133 10703,2175 10708,2207 10713,2228 10718,2263 10723,2312 10727,2374 10732,2449 10737,2536 10742,2636 10747,2748 10752,2872 10757,3007 10761,3153 10766,3305 10771,3461 10776,3618 10781,3773 10786,3925 10791,4072 10795,4215 10800,4354 10805,4490 10810,4621 10815,4750 10820,4872 10825,4980 10829,5078 10834,5164 10839,5238 10844,5302 10849,5351 10854,5392 10858,5420 10863,5440 10868,5448 10873,5449 10878,5439 10883,5419 10888,5391 10892,5356 10897,5314 10902,5270 10907,5228 10912,5188 10917,5152 10922,5137 10926,5129 10936,5139 10941,5151 10946,5166 10951,5189 10956,5219 10960,5257 10965,5304 10970,5356 10975,5415 10980,5480 10985,5549 10990,5621 10994,5693 10999,5760 11004,5818 11009,5875 11014,5933 11019,5991 11023,6052 11028,6114 11033,6174 11038,6221 11043,6264 11048,6318 11053,6376 11057,6427 11062,6471 11067,6510 11072,6545 11077,6579 11082,6606 11087,6627 11091,6641 11106,6634 11111,6616 11116,6595 11121,6575 11125,6544 11130,6495 11135,6437 11140,6376 11145,6312 11150,6246 11155,6179 11159,6113 11164,6049 11169,5987 11174,5927 11179,5877 11184,5835 11188,5801 11193,5779 11198,5769 11203,5775 11208,5768 11218,5779 11222,5791 11227,5813 11232,5842 11237,5879 11242,5920 11247,5965 11252,6015 11256,6068 11261,6116 11266,6161 11271,6201 11276,6234 11281,6258 11286,6276 11290,6306 11295,6334 11300,6357 11305,6378 11310,6396 11315,6409 11320,6417 11324,6418 11334,6399 11339,6380 11344,6354 11349,6324 11353,6286 11358,6241 11363,6194 11368,6144 11373,6087 11378,6026 11383,5963 11387,5898 11392,5828 11397,5755 11402,5678 11407,5599 11412,5520 11417,5443 11421,5369 11426,5299 11431,5232 11436,5165 11441,5099 11446,5047 11451,4997 11455,4951 11460,4901 11465,4844 11470,4783 11475,4715 11480,4644 11485,4573 11489,4493 11494,4408 11499,4316 11504,4219 11509,4119 11514,4020 11518,3927 11523,3834 11528,3736 11533,3640 11538,3551 11543,3473 11548,3409 11552,3359 11557,3325 11562,3308 11572,3335 11577,3375 11582,3430 11586,3499 11591,3580 11596,3669 11601,3766 11606,3871 11611,3983 11616,4099 11620,4221 11625,4347 11630,4475 11635,4604 11640,4731 11645,4851 11650,4958 11654,5052 11659,5137 11664,5211 11669,5271 11674,5321 11679,5358 11683,5387 11688,5404 11698,5410 11703,5398 11708,5378 11713,5351 11717,5315 11722,5274 11727,5231 11732,5192 11737,5155 11742,5121 11747,5110 11751,5107 11756,5112 11761,5127 11766,5140 11771,5161 11776,5189 11781,5226 11785,5270 11790,5321 11795,5378 11800,5442 11805,5512 11810,5582 11815,5654 11819,5728 11824,5796 11829,5856 11834,5914 11839,5973 11844,6031 11849,6096 11853,6161 11858,6221 11863,6281 11868,6333 11873,6383 11878,6426 11882,6469 11887,6507 11892,6540 11897,6568 11902,6593 11907,6613 11912,6626 11916,6633 11931,6603 11936,6575 11941,6538 11946,6492 11950,6440 11955,6380 11960,6313 11965,6236 11970,6157 11975,6077 11980,6001 11984,5928 11989,5860 11994,5799 11999,5746 12004,5706 12009,5692 12014,5673 12018,5655 12023,5649 12028,5655 12038,5681 12043,5713 12047,5755 12052,5806 12057,5864 12062,5925 12067,5986 12072,6047 12077,6106 12081,6159 12086,6198 12091,6227 12096,6265 12101,6305 12106,6329 12111,6355 12115,6381 12120,6401 12125,6414 12140,6404 12145,6382 12149,6352 12154,6312 12159,6265 12164,6215 12169,6157 12174,6093 12179,6024 12183,5951 12188,5879 12193,5802 12198,5721 12203,5637 12208,5550 12212,5468 12217,5391 12222,5317 12227,5253 12232,5198 12237,5151 12242,5110 12246,5072 12251,5038 12256,5003 12261,4973 12266,4947 12271,4919 12276,4885 12280,4856 12285,4824 12290,4783 12295,4733 12300,4670 12305,4595 12310,4502 12314,4400 12319,4288 12324,4168 12329,4048 12334,3931 12339,3823 12344,3720 12348,3626 12353,3547 12358,3482 12363,3434 12368,3403 12373,3392 12382,3427 12387,3477 12392,3547 12397,3631 12402,3732 12407,3846 12411,3968 12416,4096 12421,4226 12426,4357 12431,4489 12436,4618 12441,4743 12445,4859 12450,4961 12455,5052 12460,5133 12465,5201 12470,5257 12475,5300 12479,5330 12484,5350 12494,5357 12499,5345 12504,5322 12509,5291 12513,5250 12518,5201 12523,5146 12528,5092 12533,5054 12538,5021 12542,4996 12547,4979 12552,4965 12557,4961 12562,4967 12567,4983 12572,5009 12576,5044 12581,5090 12586,5146 12591,5210 12596,5282 12601,5363 12606,5450 12610,5536 12615,5616 12620,5692 12625,5765 12630,5839 12635,5917 12640,5991 12644,6062 12649,6131 12654,6192 12659,6250 12664,6303 12669,6345 12674,6377 12678,6401 12683,6417 12688,6420 12693,6410 12698,6390 12703,6361 12707,6322 12712,6273 12717,6216 12722,6153 12727,6082 12732,6005 12737,5931 12741,5853 12746,5780 12751,5713 12756,5652 12761,5600 12766,5556 12771,5524 12775,5507 12785,5512 12790,5534 12795,5570 12800,5618 12805,5679 12809,5750 12814,5829 12819,5911 12824,6005 12829,6102 12834,6200 12839,6295 12843,6372 12848,6426 12853,6472 12858,6522 12863,6563 12868,6592 12872,6605 12882,6579 12887,6542 12892,6489 12897,6423 12902,6342 12906,6243 12911,6131 12916,6008 12921,5882 12926,5764 12931,5651 12936,5529 12940,5398 12945,5269 12950,5159 12955,5047 12960,4938 12965,4833 12970,4735 12974,4648 12979,4573 12984,4506 12989,4455 12994,4420 12999,4407 13004,4410 13008,4430 13013,4464 13018,4511 13023,4570 13028,4633 13033,4695 13037,4766 13042,4845 13047,4922 13052,4998 13057,5072 13062,5142 13067,5205 13071,5253 13076,5280 13086,5264 13091,5226 13096,5188 13101,5130 13105,5047 13110,4948 13115,4839 13120,4713 13125,4575 13130,4433 13135,4285 13139,4138 13144,3998 13149,3869 13154,3756 13159,3660 13164,3585 13169,3530 13173,3489 13178,3457 13183,3451 13188,3472 13193,3517 13198,3585 13202,3683 13207,3805 13212,3950 13217,4118 13222,4305 13227,4510 13232,4734 13236,4967 13241,5206 13246,5442 13251,5657 13256,5873 13261,6075 13266,6248 13270,6373 13275,6441 13280,6445 13285,6385 13290,6238 13295,5957 13300,5657 13304,5337 13309,4990 13314,4622 13319,4240 13324,3847 13329,3454 13334,3067 13338,2675 13343,2292 13348,1933 13353,1613 13358,1340 13363,1117 13367,951 13372,873 13377,873 13392,922 13397,1020 13401,1140 13406,1241 13411,1345 13416,1454 13421,1561 13426,1659 13431,1740 13435,1789 13445,1789 13460,1789 13469,1773 13474,1707 13479,1602 13484,1488 13489,1386 13494,1281 13499,1172 13503,1069 13508,976 13513,906 13518,873 13528,873 13542,873 13557,873 13571,873 13586,873 13596,873 13600,908 13605,968 13610,1045 13615,1135 13620,1236 13625,1346 13630,1466 13634,1598 13639,1745 13644,1907 13649,2084 13654,2273 13659,2474 13664,2681 13668,2895 13673,3116 13678,3332 13683,3524 13688,3702 13693,3871 13697,4036 13702,4198 13707,4358 13712,4516 13717,4668 13722,4814 13727,4955 13731,5092 13736,5229 13741,5369 13746,5518 13751,5677 13756,5845 13761,6024 13765,6226 13770,6456 13775,6718 13780,7007 13785,7289 13790,7563 13795,7829 13799,8086 13804,8335 13809,8574 13814,8802 13819,9017 13824,9219 13829,9385 13833,9513 13838,9614 13843,9699 13848,9797 13853,9858 13858,9881 13872,9881 13887,9881 13901,9881 13906,9887 13911,9914 13916,9958 13921,10008 13926,10038 13940,9991 13945,9904 13950,9788 13955,9646 13960,9481 13964,9295 13969,9088 13974,8862 13979,8616 13984,8352 13989,8070 13994,7769 13998,7450 14003,7107 14008,6745 14013,6363 14018,5970 14023,5591 14027,5191 14032,4766 14037,4365 14042,3987 14047,3630 14052,3293 14057,3001 14061,2702 14066,2422 14071,2161 14076,1918 14081,1695 14086,1506 14091,1380 14095,1300 14100,1268 14105,1294 14110,1393 14115,1543 14120,1708 14125,1888 14129,2082 14134,2284 14139,2496 14144,2748 14149,3027 14154,3338 14159,3665 14163,4006 14168,4348 14173,4654 14178,4942 14183,5198 14188,5449 14192,5684 14197,5899 14202,6104 14207,6305 14212,6495 14217,6668 14222,6818 14226,6941 14231,7038 14236,7105 14241,7152 14246,7174 14256,7165 14260,7151 14265,7133 14270,7099 14275,7058 14280,7012 14285,6954 14290,6881 14294,6800 14299,6716 14304,6630 14309,6540 14314,6446 14319,6351 14324,6257 14328,6165 14333,6079 14338,5998 14343,5910 14348,5831 14353,5754 14357,5680 14362,5609 14367,5539 14372,5472 14377,5406 14382,5343 14387,5284 14391,5229 14396,5168 14401,5099 14406,5015 14411,4919 14416,4804 14421,4676 14425,4546 14430,4401 14435,4251 14440,4060 14445,3880 14450,3709 14455,3550 14459,3402 14464,3264 14469,3135 14474,3018 14479,2918 14484,2840 14489,2784 14493,2751 14498,2742 14503,2752 14508,2778 14513,2820 14518,2883 14522,2972 14527,3052 14532,3120 14537,3167 14542,3203 14547,3217 14556,3208 14561,3173 14566,3143 14571,3121 14576,3074 14581,3002 14586,2887 14590,2730 14595,2573 14600,2416 14605,2261 14610,2111 14615,1969 14620,1836 14624,1709 14629,1592 14634,1480 14639,1375 14644,1315 14649,1290 14654,1294 14658,1343 14663,1442 14668,1600 14673,1803 14678,2024 14683,2262 14687,2517 14692,2789 14697,3085 14702,3410 14707,3769 14712,4161 14717,4577 14721,4993 14726,5382 14731,5734 14736,6038 14741,6325 14746,6579 14751,6784 14755,6933 14760,7025 14765,7066 14770,7053 14775,6974 14780,6821 14785,6569 14789,6198 14794,5799 14799,5380 14804,4947 14809,4503 14814,4061 14819,3630 14823,3198 14828,2783 14833,2400 14838,2055 14843,1748 14848,1476 14852,1243 14857,1058 14862,929 14867,873 14877,873 14891,902 14896,974 14901,1071 14906,1184 14911,1326 14916,1471 14920,1601 14925,1745 14930,1899 14935,2063 14940,2236 14945,2418 14950,2608 14954,2808 14959,3016 14964,3233 14969,3449 14974,3642 14979,3807 14984,3961 14988,4106 14993,4242 14998,4394 15003,4564 15008,4735 15013,4912 15017,5095 15022,5287 15027,5485 15032,5676 15037,5869 15042,6054 15047,6225 15051,6378 15056,6510 15061,6618 15066,6724 15071,6811 15076,6875 15081,6917 15085,6937 15095,6906 15100,6855 15105,6779 15110,6684 15115,6570 15119,6431 15124,6270 15129,6089 15134,5888 15139,5663 15144,5401 15149,5037 15153,4683 15158,4339 15163,4003 15168,3677 15173,3360 15178,3050 15182,2860 15187,2715 15192,2628 15197,2604 15202,2645 15207,2756 15212,2946 15216,3243 15221,3666 15226,4151 15231,4701 15236,5251 15241,5800 15246,6350 15250,6900 15255,7450 15260,7963 15265,8388 15270,8772 15275,9110 15280,9400 15284,9645 15289,9842 15294,9980 15299,10038 15304,10038 15309,10012 15314,9910 15318,9770 15323,9605 15328,9425 15333,9266 15338,9111 15343,8962 15347,8825 15352,8709 15357,8621 15362,8589 15372,8589 15386,8598 15391,8649 15396,8764 15401,8913 15406,9083 15411,9256 15415,9413 15420,9566 15425,9711 15430,9841 15435,9948 15440,10017 15445,10038 15454,10038 15469,10038 15483,10038 15498,10038 15512,10038 15522,10038 15537,10038 15551,10038 15566,10038 15580,10038 15595,10038 15605,10038 15619,10038 15634,10038 15648,10019 15653,9921 15658,9777 15663,9593 15668,9371 15673,9111 15677,8813 15682,8473 15687,8085 15692,7635 15697,7085 15702,6535 15707,5985 15711,5436 15716,4886 15721,4336 15726,3793 15731,3289 15736,2852 15741,2459 15745,2106 15750,1791 15755,1513 15760,1298 15765,1184 15770,1157 15775,1237 15779,1413 15784,1615 15789,1843 15794,2094 15799,2365 15804,2657 15809,2969 15813,3300 15818,3652 15823,4024 15828,4417 15833,4835 15838,5285 15842,5792 15847,6251 15852,6675 15857,7029 15862,7394 15867,7733 15872,8048 15876,8340 15881,8612 15886,8863 15891,9095 15896,9307 15901,9499 15906,9670 15910,9818 15915,9937 15920,9998 15925,9941 15930,9837 15935,9717 15940,9588 15944,9413 15949,9221 15954,9015 15959,8798 15964,8573 15969,8339 15974,8098 15978,7850 15983,7595 15988,7335 15993,7069 15998,6797 16003,6541 16007,6332 16012,6151 16017,5990 16022,5839 16027,5696 16032,5558 16037,5422 16041,5295 16046,5200 16051,5109 16056,5014 16061,4916 16066,4818 16071,4722 16075,4627 16080,4539 16085,4451 16090,4374 16095,4314 16100,4268 16105,4237 16109,4224 16114,4227 16119,4243 16124,4257 16129,4260 16134,4275 16139,4305 16143,4347 16148,4397 16153,4456 16158,4520 16163,4588 16168,4660 16172,4729 16177,4792 16182,4846 16187,4895 16192,4935 16197,4969 16202,4996 16206,5018 16211,5034 16216,5045 16226,5057 16231,5059 16240,5058 16255,5057 16260,5063 16265,5075 16270,5091 16274,5110 16279,5137 16284,5170 16289,5213 16294,5273 16299,5359 16304,5473 16308,5641 16313,5943 16318,6242 16323,6539 16328,6834 16333,7127 16338,7416 16342,7702 16347,7985 16352,8266 16357,8544 16362,8816 16367,9082 16371,9336 16376,9571 16381,9780 16386,9950 16391,10038 16405,10038 16420,10038 16425,9947 16430,9803 16435,9626 16439,9422 16444,9193 16449,8938 16454,8658 16459,8335 16464,7982 16469,7599 16473,7178 16478,6708 16483,6158 16488,5608 16493,5059 16498,4509 16503,3989 16507,3548 16512,3235 16517,3008 16522,2846 16527,2725 16532,2644 16536,2613 16541,2638 16546,2710 16551,2830 16556,3009 16561,3267 16566,3597 16570,3951 16575,4330 16580,4740 16585,5187 16590,5671 16595,6121 16600,6521 16604,6890 16609,7243 16614,7581 16619,7901 16624,8203 16629,8490 16634,8759 16638,9011 16643,9244 16648,9456 16653,9644 16658,9804 16663,9932 16668,10013 16672,10038 16677,9993 16682,9927 16687,9846 16692,9752 16697,9648 16701,9534 16706,9412 16711,9282 16716,9145 16721,9003 16726,8854 16731,8701 16735,8537 16740,8376 16745,8222 16750,8081 16755,7975 16760,7937 16765,7982 16769,8067 16774,8164 16779,8271 16784,8388 16789,8513 16794,8645 16799,8783 16803,8928 16808,9079 16813,9235 16818,9398 16823,9557 16828,9706 16833,9841 16837,9951 16842,10021 16847,10038 16857,10038 16862,9997 16866,9906 16871,9776 16876,9607 16880,9401 16885,9159 16890,8882 16895,8569 16899,8222 16904,7840 16909,7426 16914,7006 16919,6568 16924,6128 16929,5696 16933,5295 16938,4933 16943,4644 16948,4418 16953,4260 16958,4166 16963,4134 16967,4142 16972,4207 16977,4335 16982,4530 16987,4801 16992,5169 16997,5594 17001,6033 17006,6470 17011,6892 17016,7285 17021,7652 17026,7993 17030,8312 17035,8605 17040,8872 17045,9120 17050,9359 17055,9574 17060,9759 17064,9909 17069,10006 17074,10038 17079,10038 17094,10019 17098,9980 17103,9926 17108,9852 17113,9742 17118,9612 17123,9464 17128,9302 17132,9132 17137,8961 17142,8796 17147,8672 17152,8577 17157,8520 17162,8520 17176,8552 17181,8596 17186,8657 17191,8743 17195,8859 17200,8995 17205,9147 17210,9312 17215,9483 17220,9652 17225,9803 17229,9918 17234,10000 17239,10038 17244,10038 17259,10038 17273,10038 17283,9964 17288,9854 17293,9698 17297,9526 17302,9338 17307,9135 17312,8919 17317,8691 17322,8451 17327,8201 17331,7941 17336,7672 17341,7394 17346,7107 17351,6811 17356,6506 17360,6214 17365,5965 17370,5729 17375,5496 17380,5233 17385,4936 17390,4649 17394,4344 17399,4026 17404,3783 17409,3586 17414,3422 17419,3286 17424,3195 17428,3143 17433,3126 17438,3147 17443,3207 17448,3314 17453,3474 17458,3696 17462,3987 17467,4336 17472,4723 17477,5165 17482,5624 17487,6005 17492,6317 17496,6616 17501,6861 17506,7048 17511,7193 17516,7311 17521,7379 17525,7402 17530,7380 17535,7313 17540,7203 17545,7049 17550,6853 17555,6612 17559,6328 17564,6021 17569,5725 17574,5432 17579,5131 17584,4856 17589,4598 17593,4340 17598,4098 17603,3888 17608,3710 17613,3538 17618,3388 17623,3250 17627,3153 17632,3081 17637,3031 17642,3003 17647,2997 17652,3016 17657,3067 17661,3131 17666,3203 17671,3285 17676,3376 17681,3464 17686,3545 17690,3629 17695,3728 17700,3832 17705,3940 17710,4037 17715,4133 17720,4231 17724,4329 17729,4427 17734,4520 17739,4606 17744,4691 17749,4774 17754,4856 17758,4940 17763,5021 17768,5102 17773,5182 17778,5262 17783,5341 17788,5421 17792,5497 17797,5572 17802,5647 17807,5715 17812,5780 17817,5844 17822,5908 17826,5971 17831,6038 17836,6109 17841,6181 17846,6257 17851,6359 17855,6469 17860,6587 17865,6715 17870,6857 17875,7016 17880,7196 17885,7426 17889,7657 17894,7886 17899,8110 17904,8330 17909,8545 17914,8752 17919,8951 17923,9143 17928,9319 17933,9470 17938,9609 17943,9735 17948,9844 17953,9934 17957,10003 17962,10038 17972,10038 17987,10038 18001,10038 18016,10038 18025,10038 18035,10016 18040,9934 18045,9818 18050,9675 18054,9506 18059,9315 18064,9100 18069,8859 18074,8591 18079,8288 18084,7946 18088,7566 18093,7158 18098,6730 18103,6280 18108,5797 18113,5283 18118,4824 18122,4367 18127,3973 18132,3677 18137,3464 18142,3327 18147,3268 18152,3281 18156,3383 18161,3600 18166,3954 18171,4343 18176,4758 18181,5193 18185,5654 18190,6150 18195,6666 18200,7183 18205,7723 18210,8218 18215,8646 18219,9017 18224,9336 18229,9604 18234,9821 18239,9972 18244,10038 18249,10038 18263,10038 18278,10038 18287,10038 18302,10038 18317,10038 18331,10038 18346,10038 18360,10038 18370,10038 18384,10038 18399,10038 18414,10038 18428,10038 18443,10038 18452,10038 18457,9987 18462,9908 18467,9806 18472,9684 18477,9547 18482,9401 18486,9250 18491,9096 18496,8938 18501,8776 18506,8613 18511,8448 18515,8283 18520,8118 18525,7954 18530,7792 18535,7649 18540,7554 18545,7491 18549,7459 18554,7456 18559,7482 18564,7539 18569,7637 18574,7793 18579,7952 18583,8115 18588,8278 18593,8443 18598,8608 18603,8773 18608,8936 18613,9098 18617,9256 18622,9410 18627,9557 18632,9694 18637,9818 18642,9924 18647,10002 18651,10038 18661,10038 18676,10038 18685,9951 18690,9784 18695,9555 18700,9268 18705,8925 18710,8518 18714,8016 18719,7466 18724,6916 18729,6366 18734,5816 18739,5267 18744,4717 18748,4167 18753,3618 18758,3068 18763,2546 18768,2155 18773,1833 18778,1655 18782,1541 18787,1477 18792,1506 18797,1627 18802,1792 18807,1965 18812,2146 18816,2333 18821,2525 18826,2720 18831,2918 18836,3117 18841,3317 18845,3501 18850,3658 18855,3792 18860,3870 18865,3950 18870,4034 18875,4106 18879,4171 18884,4232 18889,4290 18894,4350 18899,4413 18904,4485 18909,4566 18913,4661 18918,4771 18923,4894 18928,5021 18933,5145 18938,5263 18943,5369 18947,5461 18952,5538 18957,5602 18962,5651 18967,5693 18972,5716 18977,5719 18981,5701 18986,5658 18991,5590 18996,5497 19001,5385 19006,5263 19010,5145 19015,5027 19020,4918 19025,4820 19030,4738 19035,4673 19040,4629 19044,4608 19049,4607 19054,4639 19059,4702 19064,4795 19069,4912 19074,5042 19078,5179 19083,5314 19088,5438 19093,5548 19098,5649 19103,5739 19108,5830 19112,5893 19117,5921 19122,5903 19127,5832 19132,5696 19137,5476 19142,5161 19146,4831 19151,4491 19156,4149 19161,3810 19166,3477 19171,3152 19175,2837 19180,2657 19185,2537 19190,2481 19195,2509 19200,2627 19205,2856 19209,3236 19214,3669 19219,4170 19224,4720 19229,5270 19234,5819 19239,6369 19243,6919 19248,7469 19253,8019 19258,8527 19263,8935 19268,9285 19273,9574 19277,9803 19282,9965 19287,10038 19292,10038 19307,10038 19321,10038 19336,10038 19350,10038 19365,10038 19374,10038 19389,10038 19404,10038 19418,10038 19433,10038 19447,10038 19457,10038 19472,10038 19486,10038 19501,10038 19515,10038 19530,10038 19535,9929 19539,9735 19544,9474 19549,9146 19554,8742 19559,8192 19564,7642 19569,7092 19573,6542 19578,5992 19583,5443 19588,4893 19593,4343 19598,3793 19603,3243 19607,2693 19612,2180 19617,1767 19622,1433 19627,1167 19632,970 19637,873 19651,873 19666,873 19680,873 19695,873 19704,873 19719,873 19734,873 19748,873 19763,873 19777,873 19787,873 19802,873 19806,911 19811,948 19816,948 19831,948 19845,948 19860,1021 19865,1132 19869,1271 19874,1435 19879,1619 19884,1809 19889,1991 19894,2201 19899,2450 19903,2712 19908,2986 19913,3273 19918,3572 19923,3891 19928,4224 19933,4570 19937,4910 19942,5204 19947,5494 19952,5764 19957,5977 19962,6171 19967,6343 19971,6506 19976,6642 19981,6746 19986,6827 19991,6875 19996,6898 20005,6846 20010,6775 20015,6674 20020,6538 20025,6365 20030,6156 20034,5937 20039,5721 20044,5487 20049,5230 20054,4957 20059,4701 20064,4448 20068,4227 20073,4012 20078,3811 20083,3607 20088,3351 20093,3150 20098,2981 20102,2847 20107,2741 20112,2662 20117,2614 20122,2596 20127,2614 20132,2670 20136,2727 20141,2798 20146,2877 20151,2953 20156,3037 20161,3143 20165,3296 20170,3485 20175,3648 20180,3798 20185,3936 20190,4066 20195,4187 20199,4299 20204,4404 20209,4497 20214,4584 20219,4676 20224,4763 20229,4844 20233,4921 20238,4996 20243,5058 20248,5111 20253,5158 20258,5192 20263,5205 20267,5178 20272,5126 20277,5050 20282,4962 20287,4880 20292,4779 20297,4649 20301,4491 20306,4299 20311,4120 20316,3950 20321,3795 20326,3659 20330,3544 20335,3455 20340,3397 20345,3381 20350,3416 20355,3491 20360,3603 20364,3734 20369,3884 20374,4073 20379,4306 20384,4589 20389,4910 20394,5234 20398,5544 20403,5795 20408,5999 20413,6158 20418,6266 20423,6311 20428,6294 20432,6200 20437,6005 20442,5720 20447,5416 20452,5092 20457,4748 20462,4382 20466,3994 20471,3587 20476,3170 20481,2768 20486,2403 20491,2063 20495,1750 20500,1471 20505,1235 20510,1044 20515,920 20520,873 20534,873 20544,873 20554,918 20559,986 20563,1059 20573,1059 20588,1059 20602,1059 20617,1059 20627,1059 20631,1044 20636,991 20641,922 20646,873 20656,873 20670,902 20675,952 20680,1014 20685,1083 20690,1161 20694,1255 20699,1364 20704,1485 20709,1619 20714,1763 20719,1928 20724,2115 20728,2305 20733,2503 20738,2707 20743,2918 20748,3125 20753,3313 20758,3489 20762,3660 20767,3830 20772,3994 20777,4147 20782,4293 20787,4431 20792,4563 20796,4683 20801,4790 20806,4889 20811,4985 20816,5079 20821,5172 20826,5264 20830,5354 20835,5443 20840,5525 20845,5596 20850,5670 20855,5746 20859,5820 20864,5892 20869,5963 20874,6029 20879,6093 20884,6147 20889,6194 20893,6233 20898,6260 20903,6274 20913,6259 20918,6228 20923,6189 20927,6142 20932,6077 20937,5999 20942,5915 20947,5825 20952,5732 20957,5642 20961,5556 20966,5473 20971,5400 20976,5340 20981,5290 20986,5245 20991,5213 20995,5199 21000,5203 21005,5226 21010,5267 21015,5326 21020,5399 21024,5483 21029,5573 21034,5670 21039,5772 21044,5865 21049,5955 21054,6065 21058,6178 21063,6288 21068,6388 21073,6490 21078,6584 21083,6673 21088,6758 21092,6832 21097,6896 21102,6949 21107,6991 21112,7023 21117,7043 21122,7054 21126,7064 21136,7029 21141,6987 21146,6945 21151,6902 21156,6851 21160,6795 21165,6730 21170,6658 21175,6583 21180,6506 21185,6427 21189,6348 21194,6269 21199,6192 21204,6119 21209,6053 21214,5992 21219,5937 21223,5887 21228,5840 21233,5801 21238,5764 21243,5732 21248,5704 21253,5677 21257,5653 21262,5631 21267,5611 21272,5591 21277,5572 21282,5550 21287,5524 21291,5491 21296,5453 21301,5409 21306,5358 21311,5301 21316,5231 21321,5144 21325,5047 21330,4936 21335,4814 21340,4677 21345,4524 21350,4350 21354,4151 21359,3902 21364,3640 21369,3383 21374,3131 21379,2884 21384,2644 21388,2411 21393,2186 21398,1976 21403,1782 21408,1599 21413,1431 21418,1279 21422,1144 21427,1029 21432,938 21437,885 21442,873 21456,873 21466,873 21481,873 21495,873 21510,873 21524,873 21539,929 21544,1015 21549,1123 21553,1250 21558,1392 21563,1549 21568,1718 21573,1899 21578,2092 21583,2295 21587,2508 21592,2732 21597,2964 21602,3206 21607,3457 21612,3718 21617,3979 21621,4204 21626,4418 21631,4627 21636,4840 21641,5059 21646,5293 21651,5530 21655,5741 21660,5964 21665,6196 21670,6426 21675,6649 21680,6857 21684,7046 21689,7223 21694,7368 21699,7481 21704,7565 21709,7620 21714,7642 21723,7584 21728,7502 21733,7402 21738,7293 21743,7153 21748,6986 21752,6803 21757,6611 21762,6414 21767,6213 21772,6011 21777,5813 21782,5610 21786,5406 21791,5209 21796,5012 21801,4821 21806,4626 21811,4455 21816,4272 21820,4092 21825,3939 21830,3808 21835,3696 21840,3606 21845,3540 21849,3500 21854,3487 21859,3505 21864,3560 21869,3644 21874,3752 21879,3888 21883,4051 21888,4237 21893,4440 21898,4679 21903,4935 21908,5196 21913,5458 21917,5693 21922,5915 21927,6107 21932,6267 21937,6401 21942,6494 21947,6542 21951,6546 21956,6505 21961,6417 21966,6279 21971,6088 21976,5835 21981,5474 21985,5093 21990,4696 21995,4296 22000,3908 22005,3525 22010,3214 22014,2941 22019,2726 22024,2569 22029,2463 22034,2407 22039,2397 22044,2437 22048,2540 22053,2705 22058,2956 22063,3297 22068,3666 22073,4046 22078,4466 22082,4939 22087,5471 22092,5957 22097,6415 22102,6834 22107,7224 22112,7592 22116,7939 22121,8269 22126,8576 22131,8856 22136,9112 22141,9341 22146,9541 22150,9718 22155,9875 22160,9976 22170,9894 22175,9802 22179,9697 22184,9579 22189,9437 22194,9281 22199,9107 22204,8917 22209,8711 22213,8493 22218,8264 22223,8048 22228,7828 22233,7602 22238,7375 22243,7167 22247,6991 22252,6831 22257,6682 22262,6542 22267,6415 22272,6307 22277,6210 22281,6127 22286,6057 22291,6000 22296,5952 22301,5906 22306,5851 22311,5799 22315,5752 22320,5708 22325,5668 22330,5632 22335,5600 22340,5571 22344,5545 22349,5523 22354,5505 22359,5490 22364,5479 22374,5465 22378,5462 22388,5462 22403,5469 22408,5471 22417,5475 22432,5475 22442,5469 22446,5463 22451,5456 22461,5438 22471,5420 22476,5410 22480,5401 22485,5392 22490,5384 22500,5372 22514,5369 22529,5389 22534,5404 22539,5417 22543,5430 22553,5447 22568,5449 22573,5440 22577,5424 22582,5403 22587,5376 22592,5340 22597,5297 22602,5249 22607,5193 22611,5131 22616,5070 22621,5007 22626,4944 22631,4883 22636,4819 22641,4735 22645,4664 22650,4593 22655,4526 22660,4463 22665,4406 22670,4353 22674,4315 22679,4282 22684,4261 22689,4247 22694,4237 22699,4230 22708,4234 22713,4243 22718,4268 22723,4309 22728,4350 22733,4398 22738,4452 22742,4512 22747,4578 22752,4648 22757,4719 22762,4793 22767,4863 22772,4933 22776,5003 22781,5069 22786,5129 22791,5185 22796,5228 22801,5257 22806,5275 22815,5275 22820,5255 22825,5222 22830,5176 22835,5125 22839,5066 22844,5003 22849,4945 22854,4898 22859,4859 22864,4834 22869,4826 22873,4838 22878,4877 22883,4943 22888,5031 22893,5138 22898,5263 22903,5398 22907,5540 22912,5676 22917,5792 22922,5883 22927,5963 22932,6004 22941,5955 22946,5859 22951,5704 22956,5472 22961,5162 22966,4836 22971,4496 22975,4144 22980,3787 22985,3428 22990,3142 22995,2920 23000,2756 23004,2644 23009,2579 23019,2657 23024,2805 23029,3035 23034,3347 23038,3781 23043,4331 23048,4881 23053,5431 23058,5980 23063,6529 23068,7056 23072,7520 23077,7938 23082,8322 23087,8674 23092,8992 23097,9271 23102,9512 23106,9712 23111,9871 23116,9987 23121,9992 23126,9904 23131,9787 23136,9644 23140,9480 23145,9299 23150,9108 23155,8922 23160,8743 23165,8557 23169,8369 23174,8178 23179,7984 23184,7787 23189,7590 23194,7391 23199,7207 23203,7069 23208,6969 23213,6899 23218,6854 23223,6831 23228,6824 23237,6814 23242,6802 23247,6793 23257,6775 23262,6763 23267,6747 23271,6726 23276,6698 23281,6662 23286,6617 23291,6560 23296,6492 23301,6413 23305,6321 23310,6218 23315,6105 23320,5980 23325,5847 23330,5704 23334,5555 23339,5400 23344,5241 23349,5084 23354,4942 23359,4812 23364,4703 23368,4617 23373,4555 23378,4518 23383,4500 23388,4483 23393,4488 23398,4510 23402,4552 23407,4610 23412,4683 23417,4769 23422,4869 23427,4983 23432,5102 23436,5220 23441,5335 23446,5444 23451,5536 23456,5618 23461,5691 23466,5757 23470,5822 23475,5874 23480,5915 23485,5943 23490,5962 23499,5974 23504,5967 23509,5950 23514,5924 23519,5891 23524,5849 23529,5804 23533,5757 23538,5707 23543,5655 23548,5607 23553,5563 23558,5523 23563,5488 23567,5459 23572,5436 23577,5420 23582,5409 23587,5404 23601,5423 23606,5438 23611,5457 23616,5479 23621,5505 23626,5533 23631,5567 23635,5604 23640,5644 23645,5689 23650,5737 23655,5789 23660,5845 23664,5906 23669,5971 23674,6041 23679,6117 23684,6199 23689,6286 23694,6379 23698,6479 23703,6585 23708,6699 23713,6820 23718,6950 23723,7089 23728,7238 23732,7399 23737,7574 23742,7777 23747,7988 23752,8193 23757,8390 23762,8579 23766,8760 23771,8933 23776,9097 23781,9251 23786,9395 23791,9528 23796,9649 23800,9757 23805,9807 23810,9830 23820,9770 23825,9681 23829,9571 23834,9451 23839,9320 23844,9179 23849,9029 23854,8871 23859,8704 23863,8529 23868,8347 23873,8157 23878,7960 23883,7770 23888,7608 23893,7453 23897,7307 23902,7170 23907,7041 23912,6920 23917,6805 23922,6696 23927,6594 23931,6498 23936,6407 23941,6321 23946,6242 23951,6173 23956,6110 23961,6052 23965,5995 23970,5946 23975,5907 23980,5871 23985,5838 23990,5809 23994,5783 23999,5761 24004,5742 24009,5726 24014,5712 24019,5700 24024,5690 24028,5679 24033,5667 24043,5644 24048,5637 24053,5625 24058,5609 24062,5595 24067,5580 24072,5561 24077,5540 24082,5519 24087,5494 24092,5466 24096,5435 24101,5400 24106,5355 24111,5303 24116,5246 24121,5184 24126,5115 24130,5040 24135,4961 24140,4874 24145,4779 24150,4678 24155,4569 24159,4451 24164,4324 24169,4187 24174,4040 24179,3880 24184,3709 24189,3525 24193,3310 24198,3087 24203,2870 24208,2661 24213,2459 24218,2264 24223,2079 24227,1902 24232,1735 24237,1578 24242,1433 24247,1300 24252,1181 24257,1077 24261,990 24266,922 24271,882 24276,873 24291,873 24305,873 24310,907 24315,964 24320,1035 24324,1119 24329,1214 24334,1318 24339,1430 24344,1548 24349,1667 24354,1785 24358,1899 24363,2007 24368,2107 24373,2197 24378,2277 24383,2347 24388,2398 24392,2418 24397,2430 24402,2436 24412,2439 24426,2439 24431,2446 24436,2462 24441,2489 24446,2529 24451,2583 24456,2653 24460,2739 24465,2840 24470,2951 24475,3065 24480,3174 24485,3280 24489,3382 24494,3482 24499,3580 24504,3675 24509,3769 24514,3860 24519,3950 24523,4038 24528,4125 24533,4209 24538,4291 24543,4370 24548,4447 24553,4522 24557,4594 24562,4663 24567,4728 24572,4790 24577,4849 24582,4903 24587,4951 24591,4992 24596,5026 24601,5056 24606,5081 24611,5102 24616,5122 24621,5140 24625,5157 24630,5176 24635,5198 24640,5226 24645,5263 24650,5322 24654,5398 24659,5496 24664,5620 24669,5792 24674,6085 24679,6379 24684,6673 24688,6968 24693,7261 24698,7552 24703,7842 24708,8128 24713,8409 24718,8682 24722,8947 24727,9196 24732,9422 24737,9629 24742,9811 24747,9959 24752,10038 24756,10038 24771,10038 24786,10038 24800,10038 24815,10038 24824,10038 24839,10038 24853,9993 24858,9926 24863,9842 24868,9745 24873,9637 24878,9519 24883,9392 24887,9256 24892,9112 24897,8959 24902,8799 24907,8632 24912,8456 24917,8273 24921,8081 24926,7882 24931,7690 24936,7526 24941,7375 24946,7229 24951,7087 24955,6946 24960,6805 24965,6662 24970,6518 24975,6370 24980,6219 24985,6064 24989,5905 24994,5745 24999,5594 25004,5450 25009,5320 25014,5215 25018,5144 25023,5116 25028,5138 25033,5195 25038,5318 25043,5532 25048,5808 25052,6095 25057,6393 25062,6703 25067,7025 25072,7332 25077,7553 25082,7714 25086,7825 25091,7884 25101,7820 25106,7684 25111,7477 25116,7194 25120,6793 25125,6277 25130,5727 25135,5178 25140,4628 25145,4078 25150,3624 25154,3273 25159,3042 25164,2920 25169,2893 25174,2955 25179,3106 25183,3372 25188,3761 25193,4188 25198,4659 25203,5180 25208,5729 25213,6279 25217,6829 25222,7379 25227,7900 25232,8343 25237,8737 25242,9088 25247,9386 25251,9637 25256,9752 25261,9736 25266,9594 25271,9356 25276,9097 25281,8842 25285,8575 25290,8296 25295,8009 25300,7714 25305,7413 25310,7107 25315,6800 25319,6492 25324,6185 25329,5880 25334,5608 25339,5421 25344,5305 25348,5260 25353,5256 25358,5271 25363,5303 25368,5366 25373,5458 25378,5567 25382,5691 25387,5824 25392,5979 25397,6126 25402,6268 25407,6402 25412,6526 25416,6638 25421,6736 25426,6810 25431,6854 25436,6882 25441,6895 25446,6888 25450,6872 25455,6827 25460,6764 25465,6682 25470,6578 25475,6451 25480,6317 25484,6174 25489,6024 25494,5866 25499,5699 25504,5524 25509,5342 25513,5158 25518,4972 25523,4787 25528,4593 25533,4381 25538,4159 25543,3937 25547,3721 25552,3509 25557,3301 25562,3091 25567,2873 25572,2654 25577,2450 25581,2263 25586,2091 25591,1934 25596,1785 25601,1643 25606,1506 25611,1380 25615,1271 25620,1181 25625,1101 25630,1029 25635,966 25640,916 25645,884 25649,873 25654,873 25664,873 25678,873 25693,873 25708,873 25722,873 25737,873 25746,873 25761,873 25776,873 25785,909 25790,1018 25795,1176 25800,1380 25805,1628 25810,1915 25814,2237 25819,2613 25824,3050 25829,3545 25834,4095 25839,4645 25843,5195 25848,5744 25853,6294 25858,6844 25863,7382 25868,7871 25873,8157 25877,8327 25882,8414 25887,8403 25892,8295 25897,8083 25902,7723 25907,7266 25911,6753 25916,6203 25921,5653 25926,5104 25931,4554 25936,4004 25941,3454 25945,2904 25950,2400 25955,2012 25960,1681 25965,1394 25970,1164 25975,994 25979,896 25984,873 25994,873 26008,873 26023,873 26038,873 26052,873 26067,873 26076,873 26091,873 26106,873 26110,904 26115,965 26120,1045 26125,1137 26130,1238 26135,1346 26140,1457 26144,1571 26149,1680 26154,1774 26159,1862 26164,1937 26169,1999 26173,2056 26178,2117 26183,2206 26188,2314 26193,2388 26198,2434 26203,2462 26207,2477 26217,2484 26227,2489 26232,2505 26237,2536 26241,2579 26246,2637 26251,2709 26256,2785 26261,2853 26266,2895 26271,2922 26275,2956 26280,2995 26285,3039 26290,3089 26295,3142 26300,3199 26305,3257 26309,3315 26314,3375 26319,3436 26324,3495 26329,3547 26334,3585 26338,3607 26348,3596 26353,3570 26358,3787 26363,4089"/>
 <path fill="none" stroke="rgb(0,69,134)" stroke-width="80" stroke-linejoin="round" d="M 3273,5454 L 3288,5454 3302,5454 3317,5454 3332,5455 3346,5455 3356,5455 3370,5455 3385,5455 3399,5455 3414,5455 3429,5456 3438,5456 3453,5456 3463,5456 3467,5456 3482,5456 3497,5456 3511,5457 3526,5457 3535,5457 3550,5457 3564,5457 3579,5457 3594,5457 3608,5457 3618,5457 3632,5457 3647,5458 3662,5458 3676,5458 3691,5458 3700,5458 3715,5458 3729,5458 3744,5458 3759,5458 3773,5458 3783,5458 3797,5458 3812,5458 3827,5458 3841,5458 3856,5458 3865,5458 3880,5459 3894,5458 3909,5458 3924,5459 3938,5459 3948,5458 3962,5459 3977,5459 3992,5458 4006,5459 4021,5459 4030,5459 4045,5459 4059,5459 4074,5459 4089,5459 4103,5459 4113,5459 4127,5459 4142,5459 4157,5459 4171,5459 4186,5460 4195,5460 4210,5460 4224,5460 4239,5460 4254,5460 4268,5460 4278,5460 4292,5460 4307,5460 4322,5461 4336,5461 4351,5461 4360,5461 4375,5461 4389,5461 4404,5461 4419,5461 4433,5461 4448,5462 4457,5462 4472,5462 4487,5462 4501,5462 4516,5462 4530,5462 4540,5463 4554,5462 4569,5463 4584,5463 4598,5463 4613,5463 4622,5464 4637,5464 4652,5464 4666,5464 4681,5464 4695,5464 4705,5464 4719,5465 4734,5465 4749,5465 4763,5465 4778,5465 4787,5465 4802,5466 4817,5466 4831,5466 4846,5466 4860,5466 4870,5466 4884,5467 4899,5467 4914,5467 4928,5467 4943,5467 4952,5468 4967,5468 4982,5468 4996,5468 5011,5468 5025,5468 5035,5468 5049,5469 5064,5469 5079,5469 5093,5469 5108,5469 5113,5469 5117,5469 5132,5470 5147,5470 5161,5470 5176,5470 5190,5470 5200,5470 5214,5471 5229,5471 5244,5471 5258,5471 5273,5471 5282,5471 5297,5472 5312,5472 5326,5472 5341,5472 5355,5472 5370,5472 5379,5473 5394,5473 5409,5473 5423,5473 5438,5473 5452,5473 5462,5474 5477,5474 5491,5474 5506,5474 5520,5474 5535,5474 5544,5474 5559,5474 5574,5475 5588,5475 5603,5475 5617,5475 5627,5475 5642,5475 5656,5476 5671,5476 5685,5476 5700,5476 5709,5476 5724,5476 5739,5476 5753,5477 5768,5477 5782,5477 5792,5477 5807,5477 5821,5478 5836,5478 5850,5477 5865,5478 5874,5478 5889,5478 5904,5478 5918,5478 5933,5478 5947,5478 5957,5478 5972,5479 5986,5479 6001,5479 6015,5479 6030,5479 6039,5479 6054,5479 6069,5479 6083,5479 6098,5480 6112,5480 6122,5480 6137,5480 6151,5480 6166,5480 6180,5480 6195,5480 6204,5480 6219,5480 6234,5480 6248,5480 6263,5480 6277,5481 6292,5481 6302,5480 6316,5481 6331,5481 6345,5481 6360,5481 6374,5481 6384,5481 6399,5481 6413,5482 6428,5482 6442,5482 6457,5482 6467,5482 6481,5482 6496,5482 6510,5482 6525,5482 6539,5482 6549,5482 6564,5482 6578,5483 6588,5482 6593,5483 6607,5483 6622,5483 6632,5483 6646,5483 6661,5483 6675,5483 6690,5484 6704,5484 6714,5484 6729,5484 6743,5484 6758,5484 6772,5484 6787,5484 6797,5484 6811,5485 6826,5485 6840,5485 6855,5485 6869,5485 6879,5485 6894,5485 6908,5485 6923,5485 6937,5486 6952,5486 6962,5486 6976,5486 6991,5486 7005,5486 7020,5486 7034,5486 7044,5486 7059,5486 7073,5486 7088,5486 7102,5486 7117,5486 7127,5486 7141,5486 7156,5487 7170,5487 7185,5487 7199,5487 7214,5487 7224,5487 7238,5487 7253,5487 7267,5487 7282,5487 7296,5487 7306,5487 7321,5488 7335,5488 7350,5488 7364,5488 7379,5488 7389,5488 7403,5488 7418,5487 7432,5488 7447,5488 7461,5488 7471,5489 7486,5489 7500,5489 7515,5489 7529,5488 7544,5488 7554,5488 7568,5488 7583,5488 7597,5489 7612,5489 7626,5490 7636,5490 7651,5490 7665,5489 7680,5488 7694,5487 7709,5487 7719,5487 7733,5488 7748,5489 7762,5491 7777,5491 7791,5491 7801,5490 7816,5489 7830,5487 7845,5486 7859,5486 7874,5487 7884,5488 7898,5491 7913,5494 7927,5494 7942,5492 7956,5488 7966,5485 7981,5482 7995,5480 8010,5481 8015,5483 8024,5486 8039,5492 8049,5496 8063,5500 8078,5498 8083,5494 8092,5486 8097,5482 8107,5474 8117,5467 8121,5464 8136,5461 8146,5465 8155,5472 8160,5477 8170,5487 8175,5492 8180,5497 8189,5508 8194,5512 8204,5517 8218,5499 8223,5486 8228,5470 8233,5453 8238,5438 8243,5426 8248,5414 8252,5400 8257,5387 8267,5373 8272,5371 8282,5384 8286,5399 8291,5419 8296,5446 8301,5478 8306,5511 8311,5545 8316,5577 8320,5610 8325,5642 8330,5673 8335,5705 8340,5733 8345,5758 8350,5779 8354,5796 8359,5811 8364,5822 8369,5831 8379,5840 8383,5840 8388,5837 8393,5831 8398,5822 8403,5809 8408,5792 8413,5771 8417,5746 8422,5716 8427,5684 8432,5651 8437,5618 8442,5585 8447,5552 8451,5518 8456,5484 8461,5455 8466,5429 8471,5410 8476,5397 8485,5389 8490,5395 8495,5407 8500,5425 8505,5450 8510,5483 8515,5519 8519,5561 8524,5609 8529,5659 8534,5707 8539,5756 8544,5803 8548,5850 8553,5862 8558,5862 8573,5862 8587,5862 8602,5862 8616,5862 8631,5862 8641,5862 8655,5862 8670,5862 8684,5862 8699,5862 8713,5862 8723,5862 8738,5862 8752,5862 8767,5862 8781,5862 8796,5862 8806,5862 8820,5862 8835,5862 8849,5862 8864,5862 8878,5570 8883,5049 8888,5049 8903,5049 8917,5049 8932,5049 8946,5049 8961,5049 8971,5049 8985,5049 9000,5049 9014,5049 9029,5049 9043,5049 9058,5049 9068,5049 9082,5049 9097,5049 9111,5049 9126,5049 9141,5049 9150,5049 9165,5049 9179,5049 9194,5049 9208,5049 9223,5049 9233,5049 9247,5049 9262,5049 9276,5049 9291,5049 9306,5062 9310,5074 9315,5086 9325,5109 9330,5121 9335,5133 9340,5144 9344,5156 9349,5169 9354,5181 9359,5195 9364,5209 9369,5226 9373,5244 9378,5264 9383,5287 9388,5313 9393,5343 9398,5377 9403,5416 9407,5461 9412,5511 9417,5567 9422,5628 9427,5694 9432,5763 9437,5831 9441,5862 9456,5862 9471,5862 9480,5862 9495,5862 9509,5862 9524,5862 9538,5862 9553,5862 9563,5862 9577,5862 9592,5862 9606,5862 9621,5862 9636,5862 9645,5862 9660,5862 9674,5862 9689,5862 9703,5862 9718,5862 9728,5862 9742,5862 9757,5862 9771,5862 9786,5862 9801,5862 9810,5862 9825,5862 9839,5862 9854,5862 9868,5862 9883,5862 9893,5862 9907,5862 9922,5862 9936,5862 9951,5862 9956,5049 9966,5049 9980,5049 9990,5049 10004,5049 10019,5049 10033,5049 10048,5049 10063,5049 10072,5049 10087,5049 10101,5049 10116,5049 10131,5049 10145,5049 10155,5049 10169,5049 10184,5049 10198,5049 10213,5049 10228,5049 10237,5049 10252,5049 10266,5049 10281,5049 10296,5049 10310,5049 10320,5049 10334,5049 10349,5049 10363,5049 10378,5049 10393,5049 10402,5049 10417,5049 10431,5049 10446,5049 10461,5049 10475,5049 10485,5049 10499,5862 10514,5862 10528,5862 10538,5049 10543,5049 10558,5049 10567,5049 10582,5049 10596,5049 10611,5049 10626,5049 10640,5049 10650,5049 10664,5049 10679,5049 10693,5049 10708,5049 10723,5049 10732,5049 10747,5049 10761,5049 10776,5049 10791,5049 10805,5049 10815,5049 10829,5049 10844,5049 10858,5049 10873,5049 10888,5049 10902,5049 10912,5862 10926,5862 10941,5862 10956,5862 10970,5862 10985,5862 10994,5862 11009,5862 11023,5862 11038,5862 11053,5862 11067,5862 11077,5862 11091,5862 11106,5862 11121,5862 11135,5862 11150,5862 11159,5862 11174,5862 11188,5862 11203,5862 11218,5862 11232,5862 11242,5862 11256,5862 11271,5862 11286,5862 11300,5862 11315,5862 11324,5862 11339,5862 11349,5049 11353,5049 11368,5049 11383,5049 11397,5049 11407,5049 11421,5049 11436,5049 11451,5049 11465,5049 11480,5049 11489,5049 11504,5049 11518,5049 11533,5049 11548,5049 11562,5049 11572,5049 11586,5049 11601,5049 11616,5049 11630,5049 11645,5049 11654,5049 11669,5049 11683,5049 11698,5049 11713,5049 11727,5049 11737,5862 11751,5862 11766,5862 11781,5862 11795,5862 11810,5862 11824,5862 11834,5862 11849,5862 11863,5862 11878,5862 11892,5862 11907,5862 11916,5862 11931,5862 11946,5862 11960,5862 11975,5862 11989,5862 11999,5862 12014,5862 12028,5862 12043,5862 12057,5862 12072,5862 12081,5862 12096,5862 12111,5862 12125,5862 12140,5049 12154,5049 12164,5049 12179,5049 12193,5049 12208,5049 12222,5049 12237,5049 12246,5049 12261,5049 12276,5049 12290,5049 12305,5049 12319,5049 12329,5049 12344,5049 12358,5049 12373,5049 12387,5049 12402,5049 12411,5049 12426,5049 12441,5049 12455,5049 12470,5049 12484,5049 12494,5049 12509,5049 12523,5483 12528,5862 12538,5862 12552,5862 12567,5862 12576,5862 12591,5862 12606,5862 12620,5862 12635,5862 12649,5862 12664,5862 12674,5862 12688,5862 12703,5862 12717,5862 12732,5862 12746,5862 12756,5862 12771,5862 12785,5862 12800,5862 12814,5841 12819,5795 12824,5744 12829,5691 12834,5636 12839,5580 12843,5526 12848,5476 12853,5427 12858,5375 12863,5326 12868,5279 12872,5236 12877,5195 12882,5158 12887,5124 12892,5092 12897,5064 12902,5049 12911,5049 12921,5049 12936,5049 12950,5049 12965,5049 12979,5049 12994,5049 13004,5049 13018,5049 13033,5049 13047,5049 13062,5049 13076,5049 13086,5049 13101,5049 13115,5049 13125,5065 13130,5099 13135,5136 13139,5174 13144,5211 13149,5248 13154,5284 13159,5319 13164,5353 13169,5386 13173,5417 13178,5445 13183,5471 13188,5495 13193,5514 13198,5531 13202,5544 13207,5554 13212,5559 13227,5548 13232,5535 13236,5518 13241,5499 13246,5479 13251,5461 13256,5441 13261,5421 13266,5404 13270,5394 13280,5403 13285,5422 13290,5453 13295,5495 13300,5547 13304,5611 13309,5681 13314,5757 13319,5832 13324,5862 13334,5862 13348,5862 13363,5862 13377,5862 13392,5862 13406,5862 13416,5862 13431,5862 13445,5862 13460,5862 13474,5049 13489,5049 13499,5049 13513,5049 13528,5049 13542,5049 13547,5142 13552,5312 13557,5482 13562,5641 13566,5784 13571,5862 13586,5862 13596,5862 13610,5862 13625,5862 13639,5862 13654,5862 13668,5862 13678,5862 13693,5862 13707,5862 13722,5862 13736,5862 13751,5862 13761,5862 13775,5862 13790,5862 13804,5862 13819,5862 13833,5862 13843,5862 13858,5862 13872,5862 13887,5862 13901,5811 13906,5765 13911,5721 13916,5678 13921,5637 13926,5599 13930,5563 13935,5530 13940,5501 13945,5474 13950,5450 13955,5431 13960,5415 13969,5395 13984,5397 13989,5405 13994,5417 13998,5433 14003,5454 14008,5478 14013,5506 14018,5537 14023,5572 14027,5613 14032,5656 14037,5698 14042,5742 14047,5785 14052,5826 14057,5862 14066,5862 14081,5862 14091,5862 14105,5862 14120,5862 14134,5862 14149,5862 14163,5862 14173,5862 14188,5862 14202,5862 14217,5862 14231,5862 14246,5862 14256,5862 14270,5862 14285,5862 14299,5862 14314,5862 14328,5862 14333,5049 14338,5049 14353,5049 14367,5049 14382,5049 14396,5049 14411,5049 14421,5049 14435,5049 14450,5049 14464,5049 14479,5049 14493,5049 14508,5049 14518,5049 14532,5049 14547,5049 14561,5049 14576,5049 14590,5049 14595,5085 14600,5129 14605,5177 14610,5227 14615,5276 14620,5323 14624,5368 14629,5412 14634,5454 14639,5492 14644,5527 14649,5559 14654,5587 14658,5611 14663,5632 14668,5649 14673,5662 14678,5671 14683,5676 14697,5667 14702,5654 14707,5633 14712,5607 14717,5577 14721,5545 14726,5512 14731,5478 14736,5446 14741,5413 14746,5381 14751,5354 14755,5332 14760,5319 14765,5312 14775,5324 14780,5343 14785,5371 14789,5408 14794,5453 14799,5508 14804,5568 14809,5632 14814,5695 14819,5760 14823,5822 14828,5862 14838,5862 14848,5862 14862,5862 14877,5862 14891,5862 14906,5862 14920,5862 14930,5862 14945,5862 14959,5862 14974,5862 14988,5862 14993,5814 14998,5751 15003,5691 15008,5633 15013,5578 15017,5524 15022,5473 15027,5422 15032,5375 15037,5330 15042,5286 15047,5246 15051,5210 15056,5176 15061,5147 15066,5117 15071,5090 15076,5066 15081,5049 15085,5049 15095,5049 15110,5049 15124,5049 15139,5049 15149,5060 15153,5098 15158,5138 15163,5180 15168,5222 15173,5263 15178,5299 15182,5327 15187,5350 15192,5365 15207,5354 15212,5332 15216,5301 15221,5259 15226,5208 15231,5148 15236,5080 15241,5049 15250,5049 15260,5049 15275,5049 15289,5049 15304,5049 15318,5049 15333,5049 15343,5049 15357,5049 15372,5049 15386,5049 15396,5862 15401,5862 15415,5862 15430,5862 15440,5862 15454,5862 15464,5837 15469,5716 15474,5593 15479,5466 15483,5330 15488,5187 15493,5049 15498,5049 15512,5049 15522,5049 15537,5049 15546,5862 15551,5862 15566,5862 15580,5862 15595,5862 15605,5862 15619,5862 15634,5862 15648,5840 15653,5802 15658,5771 15663,5747 15668,5730 15677,5719 15682,5727 15687,5743 15692,5769 15697,5802 15702,5843 15707,5862 15716,5862 15731,5862 15745,5862 15760,5862 15770,5862 15784,5862 15799,5862 15813,5862 15828,5862 15842,5862 15852,5862 15867,5862 15881,5813 15886,5744 15891,5673 15896,5601 15901,5529 15906,5457 15910,5386 15915,5317 15920,5251 15925,5188 15930,5130 15935,5076 15940,5049 15949,5049 15964,5049 15978,5049 15993,5049 16007,5049 16017,5049 16032,5049 16046,5049 16061,5049 16075,5049 16090,5049 16100,5049 16114,5049 16129,5049 16143,5049 16158,5049 16172,5049 16182,5049 16197,5049 16211,5049 16226,5049 16240,5049 16255,5049 16265,5049 16279,5049 16294,5049 16304,5862 16308,5862 16323,5862 16338,5862 16352,5862 16362,5862 16376,5862 16391,5862 16405,5847 16410,5793 16415,5747 16420,5709 16425,5679 16430,5654 16435,5635 16439,5621 16444,5611 16459,5616 16464,5631 16469,5650 16473,5676 16478,5707 16483,5744 16488,5786 16493,5830 16498,5862 16503,5862 16517,5862 16527,5862 16541,5862 16556,5862 16570,5862 16585,5862 16595,5823 16600,5767 16604,5708 16609,5643 16614,5569 16619,5492 16624,5409 16629,5323 16634,5235 16638,5142 16643,5049 16653,5049 16668,5049 16682,5049 16692,5049 16706,5049 16721,5049 16731,5862 16735,5862 16750,5862 16765,5862 16774,5862 16789,5862 16803,5862 16818,5862 16833,5862 16847,5862 16857,5862 16871,5862 16880,5851 16885,5839 16899,5844 16904,5858 16914,5862 16929,5862 16938,5862 16953,5862 16967,5862 16982,5817 16987,5769 16992,5713 16997,5648 17001,5575 17006,5499 17011,5417 17016,5331 17021,5245 17026,5162 17030,5085 17035,5049 17050,5049 17064,5049 17079,5049 17094,5049 17103,5049 17118,5049 17132,5049 17147,5049 17162,5049 17176,5862 17186,5862 17200,5862 17215,5862 17229,5862 17244,5862 17254,5820 17259,5748 17263,5681 17268,5621 17273,5566 17278,5514 17283,5467 17288,5424 17293,5387 17297,5353 17302,5322 17307,5294 17312,5268 17317,5245 17322,5224 17327,5205 17331,5188 17336,5172 17341,5158 17346,5146 17351,5134 17356,5125 17360,5117 17365,5112 17380,5131 17385,5147 17390,5164 17394,5182 17399,5201 17404,5218 17409,5231 17419,5250 17424,5253 17433,5242 17438,5228 17443,5210 17448,5187 17453,5159 17458,5128 17462,5093 17467,5055 17477,5049 17492,5049 17506,5049 17521,5049 17530,5049 17545,5049 17559,5049 17574,5049 17589,5049 17603,5049 17613,5049 17627,5049 17642,5049 17657,5049 17671,5049 17686,5049 17695,5049 17710,5049 17724,5049 17739,5049 17749,5862 17754,5862 17768,5862 17778,5862 17792,5862 17807,5862 17822,5862 17836,5862 17851,5862 17860,5862 17875,5862 17889,5862 17904,5862 17919,5862 17933,5862 17943,5862 17957,5862 17972,5862 17987,5847 17991,5793 17996,5739 18001,5686 18006,5635 18011,5584 18016,5536 18020,5490 18025,5447 18030,5406 18035,5370 18040,5338 18045,5310 18050,5286 18054,5268 18059,5254 18069,5241 18079,5253 18084,5271 18088,5295 18093,5324 18098,5355 18103,5389 18108,5426 18113,5465 18118,5504 18122,5543 18127,5582 18132,5616 18137,5641 18142,5656 18152,5656 18156,5639 18161,5611 18166,5571 18171,5518 18176,5455 18181,5378 18185,5292 18190,5202 18195,5108 18200,5049 18205,5049 18219,5049 18234,5049 18249,5049 18263,5049 18278,5049 18287,5049 18302,5049 18317,5049 18331,5049 18346,5049 18360,5049 18370,5049 18384,5049 18399,5049 18414,5049 18428,5049 18443,5049 18452,5049 18467,5049 18482,5049 18496,5049 18511,5049 18525,5049 18535,5049 18549,5049 18554,5862 18564,5862 18579,5862 18593,5862 18608,5862 18617,5862 18632,5862 18647,5862 18661,5862 18676,5859 18680,5817 18685,5785 18690,5764 18695,5754 18700,5756 18705,5769 18710,5792 18714,5825 18719,5862 18729,5862 18744,5862 18758,5862 18773,5862 18782,5862 18797,5862 18812,5862 18826,5862 18841,5862 18855,5862 18865,5862 18879,5049 18894,5049 18909,5049 18923,5049 18938,5049 18947,5049 18962,5049 18977,5049 18991,5049 19006,5049 19020,5049 19030,5049 19044,5049 19059,5049 19074,5049 19088,5049 19103,5049 19117,5049 19127,5049 19142,5054 19146,5098 19151,5146 19156,5198 19161,5251 19166,5303 19171,5351 19175,5388 19180,5414 19185,5432 19200,5417 19205,5388 19209,5348 19214,5297 19219,5235 19224,5162 19229,5081 19234,5049 19239,5049 19253,5049 19268,5049 19282,5049 19292,5049 19307,5049 19321,5049 19336,5049 19350,5862 19365,5862 19374,5862 19389,5862 19404,5862 19413,5838 19418,5698 19423,5377 19428,5049 19433,5049 19442,5862 19447,5862 19457,5862 19472,5862 19486,5862 19501,5862 19505,5841 19510,5755 19515,5675 19520,5607 19525,5552 19530,5510 19535,5481 19539,5465 19549,5472 19554,5496 19559,5532 19564,5582 19569,5644 19573,5719 19578,5804 19583,5862 19598,5862 19612,5862 19622,5862 19637,5862 19651,5862 19666,5862 19675,5049 19680,5049 19695,5049 19704,5049 19719,5049 19734,5049 19748,5049 19763,5049 19777,5049 19787,5049 19802,5070 19806,5103 19811,5137 19816,5174 19821,5215 19826,5262 19831,5312 19835,5360 19840,5406 19845,5449 19850,5489 19855,5523 19860,5555 19865,5582 19869,5605 19874,5623 19879,5638 19884,5648 19889,5654 19899,5656 19903,5651 19913,5630 19918,5613 19923,5592 19928,5566 19933,5537 19937,5504 19942,5467 19947,5423 19952,5377 19957,5336 19962,5296 19967,5256 19971,5214 19976,5175 19981,5139 19986,5105 19991,5075 19996,5049 20010,5049 20025,5049 20039,5049 20049,5049 20064,5049 20078,5057 20083,5073 20088,5094 20093,5113 20098,5131 20102,5147 20107,5161 20112,5174 20117,5185 20122,5195 20132,5205 20146,5217 20151,5218 20161,5221 20170,5216 20175,5213 20190,5203 20204,5191 20209,5187 20214,5183 20224,5174 20229,5170 20238,5164 20243,5162 20258,5159 20267,5176 20272,5192 20277,5212 20282,5234 20287,5253 20292,5276 20297,5302 20301,5331 20306,5364 20311,5396 20316,5426 20321,5455 20326,5480 20330,5502 20335,5520 20340,5534 20345,5544 20350,5551 20355,5552 20364,5543 20369,5533 20374,5518 20379,5500 20384,5478 20389,5451 20394,5423 20398,5394 20403,5089 20408,5075 20413,5065 20423,5066 20428,5079 20432,5101 20437,5133 20442,5175 20447,5226 20452,5285 20457,5350 20462,5420 20466,5491 20471,5559 20476,5626 20481,5691 20486,5755 20491,5817 20495,5862 20505,5862 20520,5862 20534,5862 20544,5862 20559,5862 20573,5862 20588,5862 20602,5862 20617,5862 20627,5862 20641,5862 20656,5862 20670,5862 20685,5049 20699,5049 20709,5049 20724,5049 20738,5049 20753,5049 20767,5049 20782,5049 20792,5049 20796,5862 20806,5862 20821,5862 20835,5862 20850,5862 20864,5862 20874,5862 20889,5862 20903,5862 20918,5862 20932,5862 20947,5862 20961,5862 20971,5862 20986,5862 21000,5862 21015,5862 21029,5862 21044,5862 21054,5862 21068,5862 21083,5862 21097,5862 21112,5862 21126,5862 21136,5862 21151,5862 21165,5862 21180,5862 21194,5862 21209,5862 21219,5862 21233,5862 21248,5862 21262,5862 21277,5862 21291,5862 21301,5862 21316,5862 21330,5862 21345,5862 21359,5049 21374,5049 21384,5049 21398,5049 21413,5049 21427,5049 21442,5049 21456,5049 21466,5049 21481,5049 21495,5089 21500,5140 21505,5191 21510,5240 21515,5287 21519,5332 21524,5375 21529,5415 21534,5453 21539,5488 21544,5519 21549,5549 21553,5576 21558,5601 21563,5623 21568,5643 21573,5660 21578,5675 21583,5688 21587,5698 21592,5707 21597,5713 21607,5718 21621,5706 21631,5680 21636,5662 21641,5639 21646,5611 21651,5581 21655,5553 21660,5521 21665,5488 21670,5453 21675,5418 21680,5383 21684,5350 21689,5317 21694,5287 21699,5260 21704,5236 21709,5214 21714,5195 21718,5179 21723,5166 21728,5155 21733,5147 21743,5138 21748,5137 21752,5139 21757,5143 21767,5158 21772,5170 21777,5184 21782,5203 21786,5224 21791,5247 21796,5272 21801,5298 21806,5327 21811,5354 21816,5384 21820,5415 21825,5445 21830,5472 21835,5498 21840,5521 21845,5543 21849,5562 21854,5578 21859,5591 21869,5606 21883,5604 21888,5596 21893,5584 21898,5570 21903,5551 21908,5530 21913,5508 21917,5487 21922,5467 21927,5449 21932,5434 21937,5421 21942,5413 21951,5413 21956,5422 21961,5436 21966,5456 21971,5482 21976,5512 21981,5548 21985,5588 21990,5626 21995,5664 22000,5701 22005,5737 22010,5771 22014,5802 22019,5829 22024,5851 22029,5862 22034,5862 22048,5862 22058,5862 22073,5831 22078,5802 22082,5768 22087,5727 22092,5680 22097,5629 22102,5578 22107,5525 22112,5470 22116,5413 22121,5358 22126,5306 22131,5255 22136,5206 22141,5159 22146,5115 22150,5074 22155,5049 22170,5049 22184,5049 22199,5049 22213,5049 22223,5049 22238,5049 22252,5049 22267,5049 22281,5049 22296,5049 22306,5049 22320,5049 22335,5049 22349,5049 22364,5049 22378,5049 22388,5049 22403,5049 22417,5049 22432,5049 22446,5049 22461,5049 22471,5049 22485,5049 22500,5049 22514,5049 22529,5049 22543,5049 22553,5049 22568,5049 22582,5049 22597,5049 22611,5049 22626,5049 22636,5049 22650,5049 22665,5049 22679,5049 22694,5049 22704,5067 22708,5082 22713,5096 22718,5111 22723,5124 22728,5137 22733,5149 22738,5160 22742,5170 22747,5179 22757,5194 22762,5199 22772,5208 22776,5212 22786,5220 22791,5225 22796,5231 22806,5249 22810,5259 22815,5272 22820,5286 22825,5301 22830,5318 22835,5334 22839,5350 22844,5366 22849,5381 22854,5392 22859,5401 22864,5406 22873,5407 22878,5402 22888,5381 22893,5366 22898,5350 22903,5333 22907,5316 22912,5301 22917,5289 22922,5283 22927,5278 22937,5287 22941,5301 22946,5321 22951,5348 22956,5380 22961,5418 22966,5459 22971,5497 22975,5535 22980,5572 22985,5608 22990,5638 22995,5663 23000,5683 23004,5696 23009,5704 23024,5678 23029,5653 23034,5623 23038,5585 23043,5540 23048,5487 23053,5427 23058,5361 23063,5296 23068,5231 23072,5168 23077,5105 23082,5049 23092,5049 23106,5049 23121,5049 23136,5049 23145,5049 23160,5049 23174,5049 23189,5049 23203,5049 23218,5049 23228,5049 23242,5049 23257,5049 23271,5049 23286,5049 23301,5049 23310,5049 23325,5049 23339,5049 23354,5049 23368,5049 23383,5049 23393,5049 23407,5049 23422,5049 23436,5049 23451,5049 23466,5049 23475,5049 23490,5049 23504,5049 23519,5049 23533,5049 23548,5049 23558,5049 23572,5049 23587,5049 23601,5049 23616,5049 23631,5049 23645,5049 23655,5049 23669,5049 23684,5049 23698,5049 23713,5049 23728,5049 23737,5049 23752,5049 23757,5862 23766,5862 23781,5862 23796,5862 23810,5862 23820,5862 23834,5862 23849,5862 23863,5862 23878,5862 23893,5862 23902,5862 23917,5862 23931,5862 23946,5862 23961,5862 23975,5862 23985,5862 23999,5862 24014,5862 24028,5862 24043,5862 24058,5862 24067,5862 24082,5862 24096,5862 24111,5862 24126,5862 24140,5862 24150,5862 24164,5862 24179,5862 24193,5862 24208,5862 24223,5862 24232,5049 24247,5049 24261,5049 24276,5049 24291,5049 24305,5049 24315,5049 24329,5049 24344,5049 24358,5049 24373,5049 24388,5049 24397,5049 24412,5049 24426,5049 24441,5049 24456,5049 24470,5069 24475,5090 24480,5110 24485,5130 24489,5148 24494,5166 24499,5182 24504,5198 24509,5212 24514,5225 24519,5237 24523,5248 24528,5258 24538,5273 24553,5286 24567,5287 24577,5281 24587,5269 24591,5262 24596,5253 24601,5242 24606,5229 24611,5212 24616,5191 24621,5164 24625,5132 24630,5091 24635,5049 24650,5049 24659,5049 24674,5049 24688,5049 24703,5049 24713,5862 24718,5862 24732,5862 24742,5862 24756,5862 24771,5862 24786,5862 24800,5862 24815,5862 24824,5862 24839,5862 24853,5862 24868,5862 24883,5862 24897,5862 24907,5862 24921,5862 24931,5837 24936,5815 24941,5793 24946,5774 24951,5755 24955,5738 24960,5724 24965,5711 24970,5701 24975,5694 24980,5689 24989,5687 25004,5695 25018,5687 25023,5674 25028,5652 25033,5626 25038,5591 25043,5549 25048,5501 25052,5448 25057,5399 25062,5351 25067,5310 25072,5275 25077,5248 25082,5233 25086,5229 25091,5236 25096,5252 25101,5277 25106,5311 25111,5351 25116,5398 25120,5449 25125,5504 25130,5559 25135,5617 25140,5669 25145,5717 25150,5755 25154,5784 25159,5805 25164,5814 25169,5810 25174,5794 25179,5767 25183,5728 25188,5675 25193,5610 25198,5532 25203,5442 25208,5345 25213,5247 25217,5147 25222,5052 25227,5049 25237,5049 25251,5049 25266,5049 25281,5049 25295,5049 25310,5049 25319,5049 25334,5049 25348,5049 25363,5049 25378,5049 25392,5049 25402,5049 25416,5049 25431,5049 25446,5049 25460,5049 25475,5049 25489,5049 25499,5049 25513,5049 25528,5049 25543,5049 25557,5049 25572,5049 25581,5049 25596,5049 25611,5049 25625,5049 25640,5049 25654,5049 25664,5049 25678,5049 25693,5049 25708,5049 25722,5049 25737,5049 25746,5049 25751,5070 25756,5152 25761,5221 25766,5277 25771,5322 25776,5356 25780,5381 25785,5399 25790,5409 25805,5391 25810,5370 25814,5343 25819,5307 25824,5262 25829,5213 25834,5157 25839,5093 25843,5049 25858,5049 25873,5049 25887,5049 25902,5049 25911,5049 25926,5049 25936,5098 25941,5183 25945,5271 25950,5360 25955,5450 25960,5536 25965,5620 25970,5702 25975,5777 25979,5848 25984,5862 25994,5862 26008,5862 26023,5862 26038,5862 26052,5862 26067,5862 26076,5862 26091,5862 26106,5862 26120,5862 26135,5862 26140,5049 26149,5049 26159,5049 26173,5049 26188,5049 26203,5049 26217,5049 26232,5049 26241,5049 26256,5049 26271,5049 26285,5049 26300,5049 26314,5049 26324,5049 26338,5049 26353,5049"/>
 <text class="TextShape"><tspan class="TextParagraph" font-family="Liberation Sans, sans-serif" font-size="353px" font-weight="400"><tspan class="TextPosition" x="599" y="6023"><tspan fill="rgb(0,0,0)" stroke="none">14210...</tspan></tspan></tspan></text>
 <text class="TextShape"><tspan class="TextParagraph" font-family="Liberation Sans, sans-serif" font-size="353px" font-weight="400"><tspan class="TextPosition" x="4644" y="6023"><tspan fill="rgb(0,0,0)" stroke="none">14210...</tspan></tspan></tspan></text>
 <text class="TextShape"><tspan class="TextParagraph" font-family="Liberation Sans, sans-serif" font-size="353px" font-weight="400"><tspan class="TextPosition" x="8688" y="6023"><tspan fill="rgb(0,0,0)" stroke="none">14210...</tspan></tspan></tspan></text>
 <text class="TextShape"><tspan class="TextParagraph" font-family="Liberation Sans, sans-serif" font-size="353px" font-weight="400"><tspan class="TextPosition" x="12732" y="6023"><tspan fill="rgb(0,0,0)" stroke="none">14210...</tspan></tspan></tspan></text>
 <text class="TextShape"><tspan class="TextParagraph" font-family="Liberation Sans, sans-serif" font-size="353px" font-weight="400"><tspan class="TextPosition" x="16776" y="6023"><tspan fill="rgb(0,0,0)" stroke="none">14210...</tspan></tspan></tspan></text>
 <text class="TextShape"><tspan class="TextParagraph" font-family="Liberation Sans, sans-serif" font-size="353px" font-weight="400"><tspan class="TextPosition" x="20820" y="6023"><tspan fill="rgb(0,0,0)" stroke="none">14210...</tspan></tspan></tspan></text>
 <text class="TextShape"><tspan class="TextParagraph" font-family="Liberation Sans, sans-serif" font-size="353px" font-weight="400"><tspan class="TextPosition" x="24864" y="6023"><tspan fill="rgb(0,0,0)" stroke="none">14210...</tspan></tspan></tspan></text>
 <text class="TextShape"><tspan class="TextParagraph" font-family="Liberation Sans, sans-serif" font-size="353px" font-weight="400"><tspan class="TextPosition" x="28908" y="6023"><tspan fill="rgb(0,0,0)" stroke="none">14210...</tspan></tspan></tspan></text>
 <text class="TextShape"><tspan class="TextParagraph" font-family="Liberation Sans, sans-serif" font-size="353px" font-weight="400"><tspan class="TextPosition" x="496" y="9650"><tspan fill="rgb(0,0,0)" stroke="none">-80</tspan></tspan></tspan></text>
 <text class="TextShape"><tspan class="TextParagraph" font-family="Liberation Sans, sans-serif" font-size="353px" font-weight="400"><tspan class="TextPosition" x="496" y="8632"><tspan fill="rgb(0,0,0)" stroke="none">-60</tspan></tspan></tspan></text>
 <text class="TextShape"><tspan class="TextParagraph" font-family="Liberation Sans, sans-serif" font-size="353px" font-weight="400"><tspan class="TextPosition" x="496" y="7613"><tspan fill="rgb(0,0,0)" stroke="none">-40</tspan></tspan></tspan></text>
 <text class="TextShape"><tspan class="TextParagraph" font-family="Liberation Sans, sans-serif" font-size="353px" font-weight="400"><tspan class="TextPosition" x="496" y="6595"><tspan fill="rgb(0,0,0)" stroke="none">-20</tspan></tspan></tspan></text>
 <text class="TextShape"><tspan class="TextParagraph" font-family="Liberation Sans, sans-serif" font-size="353px" font-weight="400"><tspan class="TextPosition" x="787" y="5576"><tspan fill="rgb(0,0,0)" stroke="none">0</tspan></tspan></tspan></text>
 <text class="TextShape"><tspan class="TextParagraph" font-family="Liberation Sans, sans-serif" font-size="353px" font-weight="400"><tspan class="TextPosition" x="602" y="4558"><tspan fill="rgb(0,0,0)" stroke="none">20</tspan></tspan></tspan></text>
 <text class="TextShape"><tspan class="TextParagraph" font-family="Liberation Sans, sans-serif" font-size="353px" font-weight="400"><tspan class="TextPosition" x="602" y="3539"><tspan fill="rgb(0,0,0)" stroke="none">40</tspan></tspan></tspan></text>
 <text class="TextShape"><tspan class="TextParagraph" font-family="Liberation Sans, sans-serif" font-size="353px" font-weight="400"><tspan class="TextPosition" x="602" y="2521"><tspan fill="rgb(0,0,0)" stroke="none">60</tspan></tspan></tspan></text>
 <text class="TextShape"><tspan class="TextParagraph" font-family="Liberation Sans, sans-serif" font-size="353px" font-weight="400"><tspan class="TextPosition" x="602" y="1502"><tspan fill="rgb(0,0,0)" stroke="none">80</tspan></tspan></tspan></text>
 <text class="TextShape"><tspan class="TextParagraph" font-family="Liberation Sans, sans-serif" font-size="353px" font-weight="400"><tspan class="TextPosition" x="416" y="484"><tspan fill="rgb(0,0,0)" stroke="none">100</tspan></tspan></tspan></text>
 <path fill="none" stroke="rgb(0,69,134)" stroke-width="80" stroke-linejoin="round" d="M 31259,5013 L 32059,5013"/>
 <path fill="none" stroke="rgb(255,66,14)" stroke-width="80" stroke-linejoin="round" d="M 31259,5511 L 32059,5511"/>
 <path fill="none" stroke="rgb(255,211,32)" stroke-width="80" stroke-linejoin="round" d="M 31259,6008 L 32059,6008"/>
 <text class="TextShape"><tspan class="TextParagraph" font-family="Liberation Sans, sans-serif" font-size="353px" font-weight="400"><tspan class="TextPosition" x="32159" y="5133"><tspan fill="rgb(0,0,0)" stroke="none">Setpoint</tspan></tspan></tspan></text>
 <text class="TextShape"><tspan class="TextParagraph" font-family="Liberation Sans, sans-serif" font-size="353px" font-weight="400"><tspan class="TextPosition" x="32159" y="5630"><tspan fill="rgb(0,0,0)" stroke="none">Input</tspan></tspan></tspan></text>
 <text class="TextShape"><tspan class="TextParagraph" font-family="Liberation Sans, sans-serif" font-size="353px" font-weight="400"><tspan class="TextPosition" x="32159" y="6128"><tspan fill="rgb(0,0,0)" stroke="none">q</tspan></tspan></tspan></text>
</svg>