Closest Approach achieved during testing: 2117.43100778244
Final closest Approach: 2134.32208453192
Closest Approach achieved during testing: 2211.6216253939
Final closest Approach: 2228.48867706735
Closest Approach achieved during testing: 2257.89185019043
Final closest Approach: 2266.30574550825
Closest Approach achieved during testing: 2290.05798637491
Final closest Approach: 2296.49225071497
Closest Approach achieved during testing: 2373.91662790313
Final closest Approach: 2378.08033014349
Closest Approach achieved during testing: 2395.84882563078
Final closest Approach: 2399.09766810886
Closest Approach achieved during testing: 2300.10946125089
Final closest Approach: 2300.10946125089
Closest Approach achieved during testing: 2077.89587753631
Final closest Approach: 2077.89587753631
Final closest Approach: 175.281326368465
Final closest Approach: 2665.93571582016
Final closest Approach: 105.805923277435
Final closest Approach: 39.1665252197654
Final closest Approach: 55.231613741318
Final closest Approach: 47.4469419066112
Final closest Approach: 48.7851731980709
Final closest Approach: 73.3658088154288
Final closest Approach: 367.53574610399
Final closest Approach: 792.68041435886
Final closest Approach: 108.367559704831
Final closest Approach: 5169.02891257564
Final closest Approach: 4633.19829929544
Final closest Approach: 104.933667022277
Final closest Approach: 92.397805585776
Final closest Approach: 105.324414857754
Final closest Approach: 5658.22769083543
Final closest Approach: 284.778979814571
Final closest Approach: 1499.07089135449
Final closest Approach: 810.004097433771
Final closest Approach: 112.485336134256
Final closest Approach: 239.342123408144
Final closest Approach: 7253.37598959192
Final closest Approach: 22120.32807108
Final closest Approach: 12168.2929828307
Final closest Approach: 17346.9165312788
Final closest Approach: 4057.40778920472
Final closest Approach: 985.134631975808
Final closest Approach: 33193.9228540559
Final closest Approach: 33188.3496019141
Final closest Approach: 88498.9903455599
Final closest Approach: 3903.33566195594
Final closest Approach: 4278.75511997313
Final closest Approach: 15001.7045354984
Final closest Approach: 1934.83525089731
Final closest Approach: 3756.20833089706
Final closest Approach: 394304.230824053
Final closest Approach: 270.593096035759
Final closest Approach: 2203.90338638999
